[
{
  "_key" : "Neutral-dbr-0-0000",
  "set" : "Neutral",
  "dbr" : {
    "NodeHandle": 0,
    "NodeTypeHY": 0,
    "NodeTypeMT": 0,
    "NodeStatusFMT": -1,
    "NodeStatusCH": 2,
    "IterDone": 224,
    "TK": 348.15,
    "P": 100000,
    "Vs": 1.0042567369849,
    "Vi": 0,
    "Ms": 2.014531,
    "Mi": 0,
    "Hs": 0,
    "Hi": 0,
    "Gs": -4799.21454938829,
    "IS": 0.119819963923086,
    "pH": 7.51831535477063,
    "pe": 10.0009355933605,
    "Eh": 0.689479202723848,
    "Tm": 0,
    "dt": 0,
    "bIC": [
        0.00774711904112246, 3.40039993239143e-06, 8.12862114096391e-06, 1.61723191563405e-05, 0.00428462590208231, 0.0123591139372686, 0.0311666709556853, 0.0227995378616867, 0.0733307282997826, 3.35545641378736e-06, 
        5.9397097616691e-06, 4.9264467999695e-06, 0.0256164605772068, 0.0112547021720737, 111.086332383778, 7.81787788907072e-06, 0.0134135823164055, 2.35882441202942e-05, 0.0108259318719403, 0.00869966154505443, 
        7.81623790447516e-06, 0.0158697789603122, 0.0598876180294951, 7.52419978786308e-06, 1.07865904294989e-05, 54.729517594269, 3.7168226726977e-06, 70.3211811215831, 1.02045803028765e-05, 7.12074730673477e-06, 
        3.62236424392201e-06, 3.10472617885326e-06, 0.00974403795341284, 7.75349473010663e-06, 0.0149644069557493, 6.63526862803183e-05, 0.00544411439344023, 7.69788581969553e-06, 3.78734939857819e-06, 3.70332376429926e-06, 
        8.11538129040612e-06, 0
    ],
    "rMB": [
        0, 0, 4.96741961007546e-22, -1.3019068472925e-21, 0, 0, 0, 1.64080321431079e-18, 0, -4.00586722243845e-22, 
        0, -1.60234688897538e-21, -6.56321285724315e-18, 0, -8.10476350055703e-15, 1.18949961285097e-22, 6.43817972656279e-20, 4.93594039835128e-22, -7.1785140626097e-19, 0, 
        0, 0, -1.01060018287677e-17, 4.00586722243845e-22, -2.3774844198408e-21, 0, 2.75403371542643e-22, -1.13886068054356e-14, 3.20469377795076e-21, 0, 
        1.97163777354392e-22, 1.25183350701201e-22, -8.20401607155394e-19, -8.67116453128948e-22, 3.60447932675012e-18, 0, 8.20401607155394e-19, 0, 0, -4.00586722243845e-22, 
        0, -3.8796573682615e-18
    ],
    "uIC": [
        -271.260573521587, -296.695471732063, -162.911690269477, -219.765009751589, -253.653040296381, -18.9050431496621, -142.542070035875, -242.118987295685, -26.0641755726003, -293.609619988593, 
        -138.430837100318, -288.349667655812, -82.8488473628356, -127.432102682583, -40.3395661554844, -32.396166046882, -126.980997820881, -135.314355194431, -206.552954131893, -135.565874503629, 
        -246.606745647932, -14.494612584728, -117.667540081454, -310.034637933761, -74.619480230871, -1.79297998299839, -348.087082865884, -2.5721785171043, -292.243113475659, -25.1442074513427, 
        -325.393788891507, -254.85016213562, -209.049860481667, -109.266654645329, -290.926975725718, -181.787520834238, -247.873152685386, -200.601697192252, -382.089327452993, -396.698573121936, 
        -366.719828707121, 23.0280052611594
    ],
    "bSP": [
        0.00774614718455983, 3.09671094279308e-06, 0, 0, 0.00428098717090667, 0, 0.015259997341818, 0.0156984995021053, 0, 0, 
        0, 4.51388251164242e-06, 0.0253828505575375, 0.0112547021682971, 0.0267983877491864, 0, 0, 0, 0.00361001160752483, 0.00863981480001384, 
        0, 0, 3.56816139545648e-06, 0, 0, 0, 0, 0.149001431992489, 4.92997943108394e-06, 6.90766768592754e-06, 
        0, 0, 0.00822409961318986, 0, 0.0141141732918343, 6.62804736956359e-05, 0.0039431124422832, 0, 3.69748457331296e-06, 3.56816139545648e-06, 
        8.1153749021605e-06, 0
    ],
    "xDC": [
        1.85913859067707e-17, 4.53271780516403e-19, 1.75074307679836e-17, 4.259738814436e-14, 3.33164668463309e-13, 4.16891986758963e-14, 5.38361667287269e-17, 8.36094090537885e-17, 3.61006902348077e-20, 2.38208514115285e-11, 
        9.57347856727218e-07, 1.4484383764913e-08, 4.35662830756648e-14, 2.15242980177974e-14, 1.85714555995408e-14, 1.76046203991419e-11, 6.93722436052954e-15, 3.20620489996107e-14, 4.75458105822866e-12, 2.63739905155489e-11, 
        5.1552893142038e-15, 1.15921813242051e-14, 1.63135814937446e-10, 8.25503168506484e-10, 7.30972130772227e-12, 1.66092132846506e-14, 2.62881862817181e-11, 2.23101597531861e-12, 9.84575246077391e-12, 1.60071689147711e-10, 
        0, 1.68262037414466e-11, 1.29860871723102e-22, 9.86117457275171e-34, 3.04882274755156e-17, 1.60235189749496e-17, 1.46651351959118e-23, 1.03194281200006e-20, 4.39073368539966e-12, 1.28587410076311e-13, 
        4.69210417285651e-16, 3.0242445266123e-07, 6.75726625804986e-31, 8.90401516645811e-22, 5.83739283382554e-09, 5.55326994794702e-07, 4.03317625225232e-12, 7.56693386797971e-06, 1.5326122462094e-05, 8.46196694246503e-07, 
        4.86717254132218e-10, 3.04516902192608e-09, 2.82704269068725e-07, 3.35226383026864e-06, 2.15253248607817e-10, 3.32479485327873e-06, 5.88646691515386e-06, 0.000197824472411337, 0.0068849203010304, 6.22226041674898e-06, 
        1.3572704412445e-06, 9.01469871311803e-07, 4.34695225061932e-08, 1.36682436177635e-21, 1.03698601732262e-32, 3.20496560559842e-16, 1.85069958435297e-10, 7.29507890548618e-14, 2.77260607937547e-10, 5.41955748123293e-14, 
        1.21865144990975e-13, 1.36753351893179e-08, 8.67822855581659e-09, 7.68451038752317e-11, 1.74608122829452e-13, 2.76366295799809e-10, 3.74776579379461e-12, 5.35613133215085e-13, 1.0350534691246e-10, 2.00731947343001e-10, 
        1.6827840493842e-09, 0, 1.76889073507981e-10, 3.33011869033997e-06, 5.9397097616691e-06, 1.76399449397946e-24, 2.62465036870823e-10, 3.90430570321169e-12, 3.82747193201987e-09, 1.9909169796272e-10, 
        2.48614849562587e-14, 1.17684233309211e-10, 9.07949793147003e-11, 5.83306646452728e-12, 3.18094894690202e-10, 6.98003657781441e-12, 5.19932317237646e-08, 6.44118807921845e-11, 1.4373747707752e-07, 2.11936822600606e-07, 
        3.94386727823901e-25, 3.68399239615132e-25, 2.04982090046479e-30, 3.73636756088276e-24, 1.15465034703859e-22, 5.53627702371651e-24, 1.12633540286048e-25, 1.11623023385089e-23, 7.25841388444711e-32, 1.77205154948073e-24, 
        1.17619349227836e-26, 9.30715051745581e-25, 0, 0, 1.19388350379672e-24, 1.34776485067479e-25, 3.55656760501143e-28, 3.76748987781991e-22, 3.64299988555526e-22, 9.92778834358263e-24, 
        3.34766183321578e-14, 1.02435519728199e-12, 2.71880086857773e-12, 1.05630827619423e-18, 2.88057738328907e-20, 3.94681290829344e-05, 0.0133740770615226, 3.71257999761832e-08, 4.06685323774067e-08, 2.35472736420912e-05, 
        3.0194582555885e-10, 1.27860803422837e-06, 5.94407373875537e-06, 0.00687253601796818, 3.89449547669906e-05, 1.43345520712148e-05, 0.000280136235344725, 1.44735711880535e-06, 5.73841642784085e-07, 5.28397821817312e-07, 
        1.8689667927119e-07, 1.55184175317448e-06, 4.18498085872581e-05, 1.4975190398954e-05, 1.49225753754644e-07, 1.83138076318912e-09, 3.1582936074116e-08, 5.63593588950663e-07, 7.81623790447516e-06, 1.00053947947358e-07, 
        3.36661170767892e-06, 0.000125083821675138, 0.0597505127436498, 4.77452655378148e-06, 2.12110565308968e-07, 3.62501026612574e-14, 5.1252675516098e-06, 2.39893220000318e-06, 0, 0, 
        6.78331441508292e-14, 0, 0, 0, 0, 0, 0, 5.57180707774439e-08, 9.40342143992501e-11, 0, 
        0, 8.24960999377374e-07, 1.44402124447891e-14, 1.75472945014945e-17, 1.19428570934044e-09, 2.45514240443867e-08, 2.37120547485516e-09, 5.02947648776192e-10, 3.79684871484045e-10, 4.45039871693771e-14, 
        4.13283620670621e-10, 0, 0, 1.37112462044733e-08, 8.01890255084667e-08, 2.0948108536431e-12, 0, 2.39213715302219e-08, 0, 0, 
        9.75858061441764e-06, 0, 0, 0, 0, 0, 0, 0, 0, 0, 
        0, 0, 0, 0, 0, 7.35698333252134e-27, 6.14251661160041e-33, 0, 4.75536029943159e-32, 2.12567709854405e-25, 
        1.96951312190352e-21, 1.53262652418203e-19, 0, 0, 0, 0, 0, 3.33631734548297e-23, 0, 0, 
        8.09740689568971e-33, 0, 0, 8.43491281591355e-34, 9.13650568845039e-10, 1.06140077522598e-13, 4.42542326665748e-17, 1.67159838465484e-19, 4.36435284482063e-11, 9.7610607481256e-14, 
        1.96308719131092e-10, 1.08086035118286e-10, 3.73139794742724e-08, 6.0035192587617e-11, 5.1710654572159e-13, 0, 3.6462516947084e-06, 8.19281821004832e-21, 7.23108451901836e-17, 1.38432087996291e-29, 
        3.44683489339507e-24, 1.64304321215649e-11, 1.67685126117377e-14, 1.15162987300976e-12, 3.78019569425707e-18, 3.74911103132004e-17, 4.27023034133152e-15, 7.15637519423751e-13, 9.72879377420207e-13, 8.02718828681041e-17, 
        1.17046358070513e-16, 2.82331435213754e-15, 6.88385121161781e-15, 3.75214598520339e-16, 1.38084149317529e-14, 1.50190742153889e-15, 2.54286320342047e-19, 5.67009935725486e-13, 3.19146691653395e-08, 0, 
        0, 0, 0, 2.44728444602217e-18, 2.45290391286706e-15, 8.94232924209867e-13, 4.71099764434883e-14, 4.68854606435433e-12, 2.30044521031302e-13, 2.33808735566182e-14, 
        1.25107831347556e-11, 2.13061224254389e-07, 1.13208860264782e-26, 4.4610612542734e-30, 2.0538573447065e-25, 3.38400496725327e-26, 6.61467541410241e-30, 1.16680931547614e-25, 1.49397906565461e-27, 1.04907242423112e-25, 
        5.30852302226419e-25, 4.28703497391774e-26, 1.69051917657325e-26, 2.29246085697157e-28, 0, 1.94478887495777e-22, 0, 1.36125158723235e-20, 1.65847784331754e-26, 0, 
        3.14834352639857e-32, 1.00345095797927e-24, 4.48548358787504e-19, 7.39043883141517e-14, 1.14748472916545e-12, 1.40158293243928e-29, 2.03877774394839e-29, 4.51618383161064e-32, 2.49791243815506e-11, 1.04974063724775e-31, 
        4.85176166574396e-27, 1.14665312759373e-24, 2.51416465867455e-25, 1.11877804331184e-07, 3.42780282269685e-18, 1.44848156165119e-08, 3.16108725089371e-06, 4.57468286763315e-12, 5.06734554158824e-09, 5.51687870672483e-11, 
        1.69736779866784e-07, 1.40490096872424e-07, 1.36217724054452e-08, 1.52948801988444e-11, 3.34293045530571e-10, 6.70340784471091e-10, 2.47026697948247e-11, 4.20154512030254e-14, 1.31405098332272e-09, 6.53303832774019e-11, 
        3.48380496212903e-09, 0, 4.04281939141875e-10, 3.10317659924673e-11, 2.70597148070789e-07, 2.67220405098221e-06, 1.61489666095123e-07, 6.10040855814324e-31, 2.26492878725662e-21, 2.2848564506776e-16, 
        7.87910696680172e-17, 4.36051878566714e-07, 1.4922178936377e-11, 8.37614057095574e-09, 7.73106338016998e-19, 6.58442805816466e-06, 7.24623729791194e-07, 7.93265632151155e-21, 5.2610028035675e-16, 0, 
        0, 0, 0, 0, 0, 0, 1.74322956705222e-05, 3.4184797126517e-17, 0.000812548002583872, 1.648850623e-09, 
        0, 0, 0, 0, 0, 0, 0, 0, 0, 0, 
        0, 5.01382840690736e-08, 7.25229754766999e-11, 2.20017776378913e-08, 3.1917274480864e-07, 1.58899550548236e-06, 5.5954249135286e-05, 0.00144301856590249, 1.20967868964707e-07, 0, 
        0, 0, 0, 0, 0, 7.69788581969553e-06, 0, 4.00302390696636e-21, 7.30280042754746e-25, 1.70275050198516e-32, 
        4.97452476681796e-27, 9.20964077388315e-30, 4.15590449425956e-25, 9.71102730323966e-17, 2.95032210377413e-10, 1.5196077437736e-12, 1.64076174882031e-10, 8.92004403770643e-08, 2.15488450543375e-11, 1.82138310710885e-10, 
        0, 1.7742925599144e-20, 1.79745885941723e-23, 1.06771359218107e-22, 5.292237136847e-32, 2.55540165292622e-28, 2.46444359421556e-28, 0, 0, 0, 
        1.97135585155716e-22, 7.08868766889959e-18, 1.00771223481151e-15, 7.22137861345933e-15, 5.95749323927469e-14, 1.64074935125029e-17, 3.50088428441294e-23, 2.50551563655855e-31, 5.83187481389053e-24, 1.66634643800169e-23, 
        1.30938907389446e-16, 0, 2.12156470923023e-20, 1.68379034773005e-15, 0, 0, 0, 0, 0, 0, 
        0, 0, 0, 0, 0, 0, 0, 0, 0, 0, 
        0, 0, 0, 0, 0, 0, 1.0093364250845e-30, 3.70453275401139e-21, 2.4202666205559e-19, 1.82052030739384e-14, 
        0, 0, 0, 0, 4.03664312908999e-17, 6.7291833383487e-21, 3.92255716286122e-19, 0, 1.59367822843104e-11, 7.72783867466676e-09, 
        1.0634656311426e-07, 0, 0, 1.40236287312558e-08, 8.98064289025308e-10, 0, 1.47542912330353e-15, 6.29374100523601e-20, 4.90258624373651e-23, 1.11223217883413e-11, 
        6.49792704792655e-20, 1.72705879136787e-14, 3.72833925336432e-10, 1.29958650320659e-10, 7.5911753922421e-15, 3.49845819453632e-10, 0, 0, 7.40515244023024e-17, 1.40270828750423e-18, 
        2.88190467179319e-13, 1.63521542193482e-12, 1.52356193001816e-09, 1.33291801144788e-09, 2.99733174799414e-11, 1.216710384761e-13, 9.13753852744985e-14, 2.86760851832532e-16, 1.40816694722599e-11, 6.84244401407836e-12, 
        1.70382358691936e-13, 3.88340467639749e-16, 1.89187077929201e-15, 2.607348136924e-26, 1.59026387691212e-11, 3.81124133228861e-16, 1.49362979369089e-09, 0, 8.6729347426444e-10, 0, 
        0, 4.43505800699559e-22, 9.84158681538768e-24, 5.95905213624912e-22, 4.67161276891199e-21, 0, 2.93388016769605e-23, 6.38824558111949e-12, 3.58241862694552e-23, 1.09607370862384e-33, 
        0, 0, 0, 0, 1.47891141798205e-31, 8.85731118056107e-21, 0, 0, 0, 6.30142799719722e-32, 
        1.04521093383695e-28, 8.84318228555311e-27, 1.24873078450774e-25, 2.06342353810818e-24, 2.27193655960598e-24, 0, 9.06000716021206e-31, 0, 0.0123591139372686, 6.1425887985678e-06, 
        7.96265674648581e-07, 0.000131229014062001, 0, 0, 0, 9.74471756489512e-24, 0.0733152628940319, 0.000183613641877287, 8.14819362447466e-12, 1.70915801447188e-08, 
        0, 1.08964427271202e-12, 7.81787628154679e-06, 3.91607051328061e-16, 2.3531019884474e-30, 0, 0.0158697650435622, 0, 0, 0.000362335891539207, 
        0.000175054544697675, 8.71325625595866e-07, 5.21980844431856e-12, 8.34413384890079e-13, 4.40195328173153e-06, 9.38639836773544e-14, 4.92140682208243e-10, 0, 0, 0, 
        4.99760017192475e-09, 0.000819295835515291, 0, 0, 0, 0, 7.75120290832039e-06, 3.71224990300243e-08, 55.5296301427997, 0.0157452069465879, 
        0, 3.15362597930153e-33, 27.364396461243, 7.27726025060768, 0, 0, 0, 0.00387307359227991, 0, 0, 
        0, 0, 0, 0, 0, 3.09671094279308e-06, 0, 0, 0.00428098717090667, 0, 
        0, 0, 0.0126914252787688, 0, 0.00300707422333659, 0, 0, 0, 0, 0, 
        0, 0, 0, 4.51388251164242e-06, 0, 0, 0, 0, 0, 0, 
        0, 0.0112547021682971, 0, 0, 0, 0.00060293738418824, 0, 0.00863981480001384, 0, 0, 
        0, 0, 0, 0, 0, 0, 0, 0, 0, 0, 
        0, 0, 0, 0, 0, 0, 0, 0, 0, 0, 
        0, 0, 0, 0, 0, 0, 6.90766768592754e-06, 0, 0, 0, 
        0, 0, 0, 0, 0, 0, 0, 0, 0, 0, 
        0, 0, 0, 0, 0, 0, 0.00636445794587897, 0, 0, 0, 
        0, 6.62804736956359e-05, 0, 0, 0, 0.0039431124422832, 0, 0, 0, 0, 
        0, 0, 1.23249485777099e-06, 0, 0, 0, 0, 3.56816139545648e-06, 0, 0, 
        0, 0, 0, 0, 0, 0, 0, 0, 8.1153749021605e-06, 0
    ],
    "gam": [
        0.748844906360592, 0.748844906360592, 0.104021085809113, 0.298242786655958, 0.748844906360592, 0.999993965360802, 0.748844906360592, 0.298242786655958, 0.0642983846954286, 0.748844906360592, 
        0.748844906360592, 0.999993965360802, 0.298242786655958, 0.298242786655958, 0.0642983846954286, 0.748844906360592, 0.0642983846954286, 0.298242786655958, 0.298242786655958, 0.748844906360592, 
        0.999993965360802, 0.748844906360592, 0.141140177692654, 0.748844906360592, 0.298242786655958, 0.748844906360592, 0.298242786655958, 0.748844906360592, 0.298242786655958, 0.298242786655958, 
        0.298242786655958, 0.748844906360592, 0.0642983846954286, 0.0642983846954286, 0.298242786655958, 0.0642983846954286, 0.000474041570203568, 0.748844906360592, 0.64885153903521, 0.748844906360592, 
        0.999993965360802, 0.298242786655958, 0.757691799472006, 0.999993965360802, 0.0642983846954286, 0.757691799472006, 0.999993965360802, 0.298242786655958, 0.999993965360802, 0.757691799472006, 
        0.999993965360802, 0.748844906360592, 0.999993965360802, 0.313998445805765, 0.748844906360592, 0.999993965360802, 0.748844906360592, 0.999993965360802, 0.322642613780364, 0.748844906360592, 
        0.748844906360592, 0.748844906360592, 0.999993965360802, 0.0642983846954286, 0.0642983846954286, 0.298242786655958, 0.748844906360592, 0.0642983846954286, 0.748844906360592, 0.999993965360802, 
        0.748844906360592, 0.0177003230966937, 0.748844906360592, 0.298242786655958, 0.748844906360592, 0.298242786655958, 0.748844906360592, 0.298242786655958, 0.298242786655958, 0.298242786655958, 
        0.298242786655958, 0.298242786655958, 0.748844906360592, 0.298242786655958, 0.718329522860154, 0.35300102112223, 0.748844906360592, 0.748844906360592, 0.298242786655958, 0.748844906360592, 
        0.748844906360592, 0.141140177692654, 0.298242786655958, 0.748844906360592, 0.298242786655958, 0.748844906360592, 0.748844906360592, 0.748844906360592, 0.999993965360802, 0.298242786655958, 
        0.999993965360802, 0.748844906360592, 0.748844906360592, 0.999993965360802, 0.328675013747614, 0.748844906360592, 0.748844906360592, 0.748844906360592, 0.298242786655958, 0.748844906360592, 
        0.748844906360592, 0.141140177692654, 0.00750381679991997, 0.004210079618071, 0.298242786655958, 0.748844906360592, 0.999993965360802, 0.298242786655958, 0.748844906360592, 0.999993965360802, 
        0.748844906360592, 0.748844906360592, 0.999993965360802, 0.298242786655958, 0.298242786655958, 0.748844906360592, 0.743435097863787, 0.999993965360802, 0.748844906360592, 0.762067900345381, 
        0.999993965360802, 0.999993965360802, 0.748844906360592, 0.338897250250266, 0.748844906360592, 0.748844906360592, 0.999993965360802, 0.748844906360592, 0.999993965360802, 0.999993965360802, 
        0.748844906360592, 0.999993965360802, 0.378814771861268, 0.748844906360592, 0.999993965360802, 0.748844906360592, 0.748844906360592, 0.748844906360592, 0.326491172104813, 0.748844906360592, 
        0.999993965360802, 0.748844906360592, 0.754574179735509, 0.999993965360802, 0.999993965360802, 0.748844906360592, 0.729234558693539, 0.999993965360802, 0.298242786655958, 0.0642983846954286, 
        0.298242786655958, 0.999993965360802, 0.298242786655958, 0.298242786655958, 0.298242786655958, 0.298242786655958, 0.298242786655958, 0.999993965360802, 0.748844906360592, 0.999993965360802, 
        0.748844906360592, 0.340223852125283, 0.0642983846954286, 0.00750381679991997, 0.999993965360802, 0.748844906360592, 0.748844906360592, 0.999993965360802, 0.748844906360592, 0.748844906360592, 
        0.999993965360802, 0.748844906360592, 0.298242786655958, 0.748844906360592, 0.748844906360592, 0.298242786655958, 0.748844906360592, 0.999993965360802, 0.999993965360802, 0.748844906360592, 
        0.748844906360592, 0.748844906360592, 0.0642983846954286, 0.326491172104813, 0.748844906360592, 0.999993965360802, 0.748844906360592, 0.141140177692654, 0.748844906360592, 0.298242786655958, 
        0.748844906360592, 0.298242786655958, 0.748844906360592, 0.748844906360592, 0.298242786655958, 0.0147267283191031, 0.000376361393405715, 0.0939536360597846, 0.0642983846954286, 0.298242786655958, 
        0.748844906360592, 0.999993965360802, 0.298242786655958, 0.748844906360592, 0.298242786655958, 0.999993965360802, 0.043474922545096, 0.748844906360592, 0.0939536360597846, 0.0939536360597846, 
        0.298242786655958, 0.0642983846954286, 0.0642983846954286, 0.0642983846954286, 0.748844906360592, 0.0642983846954286, 0.00750381679991997, 0.000474041570203568, 0.748844906360592, 0.748844906360592, 
        0.999993965360802, 0.748844906360592, 0.748844906360592, 0.999993965360802, 0.999993965360802, 0.999993965360802, 0.999993965360802, 0.298242786655958, 0.748844906360592, 1.62107339842484e-05, 
        0.729234558693539, 0.298242786655958, 0.00490781304877708, 0.999993965360802, 0.748844906360592, 0.298242786655958, 0.999993965360802, 0.748844906360592, 0.748844906360592, 0.298242786655958, 
        0.298242786655958, 0.999993965360802, 0.298242786655958, 0.748844906360592, 0.748844906360592, 0.999993965360802, 0.748844906360592, 0.748844906360592, 0.999993965360802, 0.298242786655958, 
        0.298242786655958, 0.298242786655958, 0.298242786655958, 0.339958867391099, 0.748844906360592, 0.298242786655958, 0.999993965360802, 0.298242786655958, 0.748844906360592, 0.298242786655958, 
        0.748844906360592, 0.999993965360802, 0.748844906360592, 0.0642983846954286, 0.298242786655958, 0.748844906360592, 0.999993965360802, 0.748844906360592, 0.748844906360592, 0.141140177692654, 
        0.748844906360592, 0.298242786655958, 0.298242786655958, 0.748844906360592, 0.298242786655958, 0.298242786655958, 0.00750381679991997, 0.00750381679991997, 7.39021030037531e-05, 0.00750381679991997, 
        0.0642983846954286, 0.0642983846954286, 0.298242786655958, 0.748844906360592, 0.999993965360802, 0.298242786655958, 0.999993965360802, 0.043474922545096, 0.748844906360592, 0.0642983846954286, 
        0.0642983846954286, 0.298242786655958, 0.0642983846954286, 0.748844906360592, 0.000474041570203568, 0.999993965360802, 0.748844906360592, 0.298242786655958, 0.298242786655958, 0.00750381679991997, 
        0.999993965360802, 0.748844906360592, 0.999993965360802, 0.298242786655958, 0.999993965360802, 0.298242786655958, 0.748844906360592, 0.999993965360802, 0.748844906360592, 0.999993965360802, 
        0.748844906360592, 0.999993965360802, 0.999993965360802, 0.748844906360592, 0.999993965360802, 0.326491172104813, 0.748844906360592, 0.748844906360592, 0.999993965360802, 0.748844906360592, 
        0.312588341205552, 0.999993965360802, 0.748844906360592, 0.999993965360802, 0.999993965360802, 0.298242786655958, 0.999993965360802, 0.298242786655958, 0.999993965360802, 0.999993965360802, 
        0.748844906360592, 0.298242786655958, 0.298242786655958, 0.298242786655958, 0.298242786655958, 0.748844906360592, 0.748844906360592, 0.00750381679991997, 0.999993965360802, 0.298242786655958, 
        0.999993965360802, 0.999993965360802, 0.35300102112223, 0.298242786655958, 0.748844906360592, 0.999993965360802, 0.748844906360592, 0.748844906360592, 0.748844906360592, 0.999993965360802, 
        0.748844906360592, 0.999993965360802, 0.298242786655958, 0.748844906360592, 0.999993965360802, 0.748844906360592, 0.999993965360802, 0.339428399680348, 0.748844906360592, 0.999993965360802, 
        0.748844906360592, 0.748844906360592, 0.999993965360802, 0.748844906360592, 0.312588341205552, 0.739381157251269, 0.00750381679991997, 1.62107339842484e-05, 0.298242786655958, 0.0642983846954286, 
        0.298242786655958, 0.748844906360592, 0.298242786655958, 0.0642983846954286, 0.298242786655958, 0.298242786655958, 0.999993965360802, 0.748844906360592, 0.999993965360802, 0.298242786655958, 
        0.298242786655958, 0.999993965360802, 0.298242786655958, 0.043474922545096, 1.62107339842484e-05, 0.000474041570203568, 0.00750381679991997, 3.00698539266684e-09, 4.78925697365201e-14, 1.63107415611425e-11, 
        0.0642983846954286, 0.0642983846954286, 0.298242786655958, 0.748844906360592, 0.999993965360802, 0.298242786655958, 0.0642983846954286, 0.00750381679991997, 0.0642983846954286, 0.0642983846954286, 
        0.000474041570203568, 0.0642983846954286, 0.298242786655958, 0.298242786655958, 0.00750381679991997, 1.62107339842484e-05, 0.0642983846954286, 0.298242786655958, 0.298242786655958, 0.748844906360592, 
        0.999993965360802, 0.298242786655958, 0.298242786655958, 0.999993965360802, 0.043474922545096, 0.748844906360592, 0.0642983846954286, 0.0642983846954286, 0.298242786655958, 0.748844906360592, 
        0.999993965360802, 0.748844906360592, 0.298242786655958, 0.0642983846954286, 0.0642983846954286, 0.0642983846954286, 0.000474041570203568, 0.748844906360592, 0.0642983846954286, 0.298242786655958, 
        0.748844906360592, 1.62107339842484e-05, 0.298242786655958, 0.748844906360592, 0.748844906360592, 0.748844906360592, 0.748844906360592, 0.999993965360802, 0.298242786655958, 0.999993965360802, 
        0.298242786655958, 0.298242786655958, 0.298242786655958, 0.298242786655958, 0.00750381679991997, 0.999993965360802, 0.748844906360592, 0.999993965360802, 0.298242786655958, 0.999993965360802, 
        0.999993965360802, 0.748844906360592, 0.999993965360802, 0.748844906360592, 0.298242786655958, 0.748844906360592, 0.999993965360802, 0.748844906360592, 0.298242786655958, 0.00750381679991997, 
        0.999993965360802, 0.298242786655958, 0.999993965360802, 0.748844906360592, 0.298242786655958, 0.0642983846954286, 0.748844906360592, 0.999993965360802, 0.748844906360592, 0.999993965360802, 
        0.64885153903521, 0.298242786655958, 0.748844906360592, 0.748844906360592, 0.999993965360802, 0.748844906360592, 0.748844906360592, 0.748844906360592, 0.748844906360592, 7.39021030037531e-05, 
        7.39021030037531e-05, 0.298242786655958, 0.00750381679991997, 0.999993965360802, 0.00750381679991997, 0.298242786655958, 0.298242786655958, 0.999993965360802, 0.298242786655958, 0.999993965360802, 
        0.298242786655958, 0.043474922545096, 3.00698539266684e-09, 0.0642983846954286, 0.748844906360592, 0.999993965360802, 3.00698539266684e-09, 0.0642983846954286, 0.298242786655958, 0.0177003230966937, 
        0.298242786655958, 0.748844906360592, 0.999993965360802, 0.748844906360592, 0.298242786655958, 0.0642983846954286, 0.0642983846954286, 0.298242786655958, 0.729234558693539, 0.999993965360802, 
        0.337299705038674, 0.772241938357798, 0.999993965360802, 0.748844906360592, 0.999993965360802, 0.729234558693539, 0.743435097863787, 0.738595495124624, 0.748844906360592, 0.999993965360802, 
        0.999993965360802, 0.999993965360802, 0.748844906360592, 0.729234558693539, 0.999993965360802, 0.748844906360592, 0.729234558693539, 0.999993965360802, 0.718329522860154, 0.999993965360802, 
        0.999993965360802, 0.757691799472006, 0.999993965360802, 0.0642983846954286, 0.298242786655958, 0.00750381679991997, 0.0642983846954286, 0.298242786655958, 0.748844906360592, 0.312588341205552, 
        0.748844906360592, 0.334891827081427, 0.999993965360802, 0.739381157251269, 0.298242786655958, 0.748844906360592, 0.83275568130708, 0.817204661568102, 0.999987916757258, 1, 
        1, 1, 1, 1, 1, 1, 1, 1, 1, 1, 
        1, 1, 1, 1, 1, 1, 1, 1, 1, 1, 
        1, 1, 1, 1, 1, 1, 1, 1, 1, 1, 
        1, 1, 1, 1, 1, 1, 1, 1, 1, 1, 
        1, 1, 1, 1, 1, 1, 1, 1, 1, 1, 
        1, 1, 1, 1, 1, 1, 1, 1, 1, 1, 
        1, 1, 1, 1, 1, 1, 1, 1, 1, 1, 
        1, 1, 1, 1, 1, 1, 1, 1, 1, 1, 
        1, 1, 1, 1, 1, 1, 1, 1, 1, 1, 
        1, 1, 1, 1, 1, 1, 1, 1, 1, 1, 
        1, 1, 1, 1, 1, 1, 1, 1, 1, 1, 
        1, 1, 1, 1, 1, 1, 1, 1, 1, 1, 
        1, 1, 1, 1, 1, 1, 1, 1, 1, 1
    ],
    "dll": [
        0, 0, 0, 0, 0, 0, 0, 0, 0, 0, 
        0, 0, 0, 0, 0, 0, 0, 0, 0, 0, 
        0, 0, 0, 0, 0, 0, 0, 0, 0, 0, 
        0, 0, 0, 0, 0, 0, 0, 0, 0, 0, 
        0, 0, 0, 0, 0, 0, 0, 0, 0, 0, 
        0, 0, 0, 0, 0, 0, 0, 0, 0, 0, 
        0, 0, 0, 0, 0, 0, 0, 0, 0, 0, 
        0, 0, 0, 0, 0, 0, 0, 0, 0, 0, 
        0, 0, 0, 0, 0, 0, 0, 0, 0, 0, 
        0, 0, 0, 0, 0, 0, 0, 0, 0, 0, 
        0, 0, 0, 0, 0, 0, 0, 0, 0, 0, 
        0, 0, 0, 0, 0, 0, 0, 0, 0, 0, 
        0, 0, 0, 0, 0, 0, 0, 0, 0, 0, 
        0, 0, 0, 0, 0, 0, 0, 0, 0, 0, 
        0, 0, 0, 0, 0, 0, 0, 0, 0, 0, 
        0, 0, 0, 0, 0, 0, 0, 0, 0, 0, 
        0, 0, 0, 0, 0, 0, 0, 0, 0, 0, 
        0, 0, 0, 0, 0, 0, 0, 0, 0, 0, 
        0, 0, 0, 0, 0, 0, 0, 0, 0, 0, 
        0, 0, 0, 0, 0, 0, 0, 0, 0, 0, 
        0, 0, 0, 0, 0, 0, 0, 0, 0, 0, 
        0, 0, 0, 0, 0, 0, 0, 0, 0, 0, 
        0, 0, 0, 0, 0, 0, 0, 0, 0, 0, 
        0, 0, 0, 0, 0, 0, 0, 0, 0, 0, 
        0, 0, 0, 0, 0, 0, 0, 0, 0, 0, 
        0, 0, 0, 0, 0, 0, 0, 0, 0, 0, 
        0, 0, 0, 0, 0, 0, 0, 0, 0, 0, 
        0, 0, 0, 0, 0, 0, 0, 0, 0, 0, 
        0, 0, 0, 0, 0, 0, 0, 0, 0, 0, 
        0, 0, 0, 0, 0, 0, 0, 0, 0, 0, 
        0, 0, 0, 0, 0, 0, 0, 0, 0, 0, 
        0, 0, 0, 0, 0, 0, 0, 0, 0, 0, 
        0, 0, 0, 0, 0, 0, 0, 0, 0, 0, 
        0, 0, 0, 0, 0, 0, 0, 0, 0, 0, 
        0, 0, 0, 0, 0, 0, 0, 0, 0, 0, 
        0, 0, 0, 0, 0, 0, 0, 0, 0, 0, 
        0, 0, 0, 0, 0, 0, 0, 0, 0, 0, 
        0, 0, 0, 0, 0, 0, 0, 0, 0, 0, 
        0, 0, 0, 0, 0, 0, 0, 0, 0, 0, 
        0, 0, 0, 0, 0, 0, 0, 0, 0, 0, 
        0, 0, 0, 0, 0, 0, 0, 0, 0, 0, 
        0, 0, 0, 0, 0, 0, 0, 0, 0, 0, 
        0, 0, 0, 0, 0, 0, 0, 0, 0, 0, 
        0, 0, 0, 0, 0, 0, 0, 0, 0, 0, 
        0, 0, 0, 0, 0, 0, 0, 0, 0, 0, 
        0, 0, 0, 0, 0, 0, 0, 0, 0, 0, 
        0, 0, 0, 0, 0, 0, 0, 0, 0, 0, 
        0, 0, 0, 0, 0, 0, 0, 0, 0, 0, 
        0, 0, 0, 0, 0, 0, 0, 0, 0, 0, 
        0, 0, 0, 0, 0, 0, 0, 0, 0, 0, 
        0, 0, 0, 0, 0, 0, 0, 0, 0, 0, 
        0, 0, 0, 0, 0, 0, 0, 0, 0, 0, 
        0, 0, 0, 0, 0, 0, 0, 0, 0, 0, 
        0, 0, 0, 0, 0, 0, 0, 0, 0, 0, 
        0, 0, 0, 0, 0, 0, 0, 0, 0, 0, 
        0, 0, 0, 0, 0, 0, 0, 0, 0, 0, 
        0, 0, 0, 0, 0, 0, 0, 0, 0, 0, 
        0, 0, 0, 0, 0, 0, 0, 0, 0, 0, 
        0, 0, 0, 0, 0, 0, 0, 0, 0, 0, 
        0, 0, 0, 0, 0, 0, 0, 0, 0, 0, 
        0, 0, 0, 0, 0, 0, 0, 0, 0, 0, 
        0, 0, 0, 0, 0, 0, 0, 0, 0, 0, 
        0, 0, 0, 0, 0, 0, 0, 0, 0, 0, 
        0, 0, 0, 0, 0, 0, 0, 0, 0, 0, 
        0, 0, 0, 0, 0, 0, 0, 0, 0, 0, 
        0, 0, 0, 0, 0, 0, 0, 0, 0, 0, 
        0, 0, 0, 0, 0, 0, 0, 0, 0, 0, 
        0, 0, 0, 0, 0, 0, 0, 0, 0, 0, 
        0, 0, 0, 0, 0, 0, 0, 0, 0, 0
    ],
    "dul": [
        1000000, 1000000, 1000000, 1000000, 1000000, 1000000, 1000000, 1000000, 1000000, 1000000, 
        1000000, 1000000, 1000000, 1000000, 1000000, 1000000, 1000000, 1000000, 1000000, 1000000, 
        1000000, 1000000, 1000000, 1000000, 1000000, 1000000, 1000000, 1000000, 1000000, 1000000, 
        1000000, 1000000, 1000000, 1000000, 1000000, 1000000, 1000000, 1000000, 1000000, 1000000, 
        1000000, 1000000, 1000000, 1000000, 1000000, 1000000, 1000000, 1000000, 1000000, 1000000, 
        1000000, 1000000, 1000000, 1000000, 1000000, 1000000, 1000000, 1000000, 1000000, 1000000, 
        1000000, 1000000, 1000000, 1000000, 1000000, 1000000, 1000000, 1000000, 1000000, 1000000, 
        1000000, 1000000, 1000000, 1000000, 1000000, 1000000, 1000000, 1000000, 1000000, 1000000, 
        1000000, 1000000, 1000000, 1000000, 1000000, 1000000, 1000000, 1000000, 1000000, 1000000, 
        1000000, 1000000, 1000000, 1000000, 1000000, 1000000, 1000000, 1000000, 1000000, 1000000, 
        1000000, 1000000, 1000000, 1000000, 1000000, 1000000, 1000000, 1000000, 1000000, 1000000, 
        1000000, 1000000, 1000000, 1000000, 1000000, 1000000, 1000000, 1000000, 1000000, 1000000, 
        1000000, 1000000, 1000000, 1000000, 1000000, 1000000, 1000000, 1000000, 1000000, 1000000, 
        1000000, 1000000, 1000000, 1000000, 1000000, 1000000, 1000000, 1000000, 1000000, 1000000, 
        1000000, 1000000, 1000000, 1000000, 1000000, 1000000, 1000000, 1000000, 1000000, 1000000, 
        1000000, 1000000, 1000000, 1000000, 1000000, 1000000, 1000000, 1000000, 1000000, 1000000, 
        1000000, 1000000, 1000000, 1000000, 1000000, 1000000, 1000000, 1000000, 1000000, 1000000, 
        1000000, 1000000, 1000000, 1000000, 1000000, 1000000, 1000000, 1000000, 1000000, 1000000, 
        1000000, 1000000, 1000000, 1000000, 1000000, 1000000, 1000000, 1000000, 1000000, 1000000, 
        1000000, 1000000, 1000000, 1000000, 1000000, 1000000, 1000000, 1000000, 1000000, 1000000, 
        1000000, 1000000, 1000000, 1000000, 1000000, 1000000, 1000000, 1000000, 1000000, 1000000, 
        1000000, 1000000, 1000000, 1000000, 1000000, 1000000, 1000000, 1000000, 1000000, 1000000, 
        1000000, 1000000, 1000000, 1000000, 1000000, 1000000, 1000000, 1000000, 1000000, 1000000, 
        1000000, 1000000, 1000000, 1000000, 1000000, 1000000, 1000000, 1000000, 1000000, 1000000, 
        1000000, 1000000, 1000000, 1000000, 1000000, 1000000, 1000000, 1000000, 1000000, 1000000, 
        1000000, 1000000, 1000000, 1000000, 1000000, 1000000, 1000000, 1000000, 1000000, 1000000, 
        1000000, 1000000, 1000000, 1000000, 1000000, 1000000, 1000000, 1000000, 1000000, 1000000, 
        1000000, 1000000, 1000000, 1000000, 1000000, 1000000, 1000000, 1000000, 1000000, 1000000, 
        1000000, 1000000, 1000000, 1000000, 1000000, 1000000, 1000000, 1000000, 1000000, 1000000, 
        1000000, 1000000, 1000000, 1000000, 1000000, 1000000, 1000000, 1000000, 1000000, 1000000, 
        1000000, 1000000, 1000000, 1000000, 1000000, 1000000, 1000000, 1000000, 1000000, 1000000, 
        1000000, 1000000, 1000000, 1000000, 1000000, 1000000, 1000000, 1000000, 1000000, 1000000, 
        1000000, 1000000, 1000000, 1000000, 1000000, 1000000, 1000000, 1000000, 1000000, 1000000, 
        1000000, 1000000, 1000000, 1000000, 1000000, 1000000, 1000000, 1000000, 1000000, 1000000, 
        1000000, 1000000, 1000000, 1000000, 1000000, 1000000, 1000000, 1000000, 1000000, 1000000, 
        1000000, 1000000, 1000000, 1000000, 1000000, 1000000, 1000000, 1000000, 1000000, 1000000, 
        1000000, 1000000, 1000000, 1000000, 1000000, 1000000, 1000000, 1000000, 1000000, 1000000, 
        1000000, 1000000, 1000000, 1000000, 1000000, 1000000, 1000000, 1000000, 1000000, 1000000, 
        1000000, 1000000, 1000000, 1000000, 1000000, 1000000, 1000000, 1000000, 1000000, 1000000, 
        1000000, 1000000, 1000000, 1000000, 1000000, 1000000, 1000000, 1000000, 1000000, 1000000, 
        1000000, 1000000, 1000000, 1000000, 1000000, 1000000, 1000000, 1000000, 1000000, 1000000, 
        1000000, 1000000, 1000000, 1000000, 1000000, 1000000, 1000000, 1000000, 1000000, 1000000, 
        1000000, 1000000, 1000000, 1000000, 1000000, 1000000, 1000000, 1000000, 1000000, 1000000, 
        1000000, 1000000, 1000000, 1000000, 1000000, 1000000, 1000000, 1000000, 1000000, 1000000, 
        1000000, 1000000, 1000000, 1000000, 1000000, 1000000, 1000000, 1000000, 1000000, 1000000, 
        1000000, 1000000, 1000000, 1000000, 1000000, 1000000, 1000000, 1000000, 1000000, 1000000, 
        1000000, 1000000, 1000000, 1000000, 1000000, 1000000, 1000000, 1000000, 1000000, 1000000, 
        1000000, 1000000, 1000000, 1000000, 1000000, 1000000, 1000000, 1000000, 1000000, 1000000, 
        1000000, 1000000, 1000000, 1000000, 1000000, 1000000, 1000000, 1000000, 1000000, 1000000, 
        1000000, 1000000, 1000000, 1000000, 1000000, 1000000, 1000000, 1000000, 1000000, 1000000, 
        1000000, 1000000, 1000000, 1000000, 1000000, 1000000, 1000000, 1000000, 1000000, 1000000, 
        1000000, 1000000, 1000000, 1000000, 1000000, 1000000, 1000000, 1000000, 1000000, 1000000, 
        1000000, 1000000, 1000000, 1000000, 1000000, 1000000, 1000000, 1000000, 1000000, 1000000, 
        1000000, 1000000, 1000000, 1000000, 1000000, 1000000, 1000000, 1000000, 1000000, 1000000, 
        1000000, 1000000, 1000000, 1000000, 1000000, 1000000, 1000000, 1000000, 1000000, 1000000, 
        1000000, 1000000, 1000000, 1000000, 1000000, 1000000, 1000000, 1000000, 1000000, 1000000, 
        1000000, 1000000, 1000000, 1000000, 1000000, 1000000, 1000000, 1000000, 1000000, 1000000, 
        1000000, 1000000, 1000000, 1000000, 1000000, 1000000, 1000000, 1000000, 1000000, 1000000, 
        1000000, 1000000, 1000000, 1000000, 1000000, 1000000, 1000000, 1000000, 1000000, 1000000, 
        1000000, 1000000, 1000000, 1000000, 1000000, 1000000, 1000000, 1000000, 1000000, 1000000, 
        1000000, 1000000, 1000000, 1000000, 1000000, 1000000, 1000000, 1000000, 1000000, 1000000, 
        1000000, 1000000, 1000000, 1000000, 1000000, 1000000, 1000000, 1000000, 1000000, 1000000, 
        1000000, 1000000, 1000000, 1000000, 1000000, 1000000, 1000000, 1000000, 1000000, 1000000, 
        1000000, 1000000, 1000000, 1000000, 1000000, 1000000, 1000000, 1000000, 1000000, 1000000, 
        1000000, 1000000, 1000000, 1000000, 1000000, 1000000, 1000000, 1000000, 1000000, 1000000, 
        1000000, 1000000, 1000000, 1000000, 1000000, 1000000, 1000000, 1000000, 1000000, 1000000, 
        1000000, 1000000, 1000000, 1000000, 1000000, 1000000, 1000000, 1000000, 1000000, 1000000, 
        1000000, 1000000, 1000000, 1000000, 1000000, 1000000, 1000000, 1000000, 1000000, 1000000, 
        1000000, 1000000, 1000000, 1000000, 1000000, 1000000, 1000000, 1000000, 1000000, 1000000
    ],
    "aPH": [
        0, 0, 0, 0, 0, 0, 0, 0, 0, 0, 
        0, 0, 0, 0, 0, 0, 0, 0, 0, 0, 
        0, 0, 0, 0, 0, 0, 0, 0, 0, 0, 
        0, 0, 0, 0, 0, 0, 0, 0, 0, 0, 
        0, 0, 0, 0, 0, 0, 0, 0, 0, 0, 
        0, 0, 0, 0, 0, 0, 0, 0, 0, 0, 
        0, 0, 0, 0, 0, 0, 0, 0, 0, 0, 
        0, 0, 0, 0, 0, 0, 0, 0, 0, 0, 
        0, 0, 0, 0, 0, 0, 0, 0, 0, 0, 
        0, 0, 0, 0, 0, 0, 0, 0, 0, 0, 
        0, 0, 0, 0, 0, 0, 0, 0, 0, 0, 
        0, 0, 0, 0, 0, 0, 0, 0, 0, 0, 
        0, 0, 0, 0, 0, 0
    ],
    "xPH": [
        55.7229928284354, 34.6574019187972, 0, 0.00387307359227991, 0, 0, 0, 0, 0, 0, 
        0, 3.09671094279308e-06, 0, 0, 0.00428098717090667, 0, 0, 0, 0.0126914252787688, 0, 
        0.00300707422333659, 0, 0, 0, 0, 0, 0, 0, 0, 4.51388251164242e-06, 
        0, 0, 0, 0, 0, 0, 0, 0.0112547021682971, 0, 0, 
        0, 0.00060293738418824, 0, 0.00863981480001384, 0, 0, 0, 0, 0, 0, 
        0, 0, 0, 0, 0, 0, 0, 0, 0, 0, 
        0, 0, 0, 0, 0, 0, 0, 0, 0, 0, 
        0, 0, 6.90766768592754e-06, 0, 0, 0, 0, 0, 0, 0, 
        0, 0, 0, 0, 0, 0, 0, 0, 0, 0, 
        0, 0, 0.00636445794587897, 0, 0, 0, 0, 6.62804736956359e-05, 0, 0, 
        0, 0.0039431124422832, 0, 0, 0, 0, 0, 0, 1.23249485777099e-06, 0, 
        0, 0, 0, 3.56816139545648e-06, 0, 0, 0, 0, 0, 0, 
        0, 0, 0, 0, 8.1153749021605e-06, 0
    ],
    "vPS": [
        0.00102812243313269, 1.00322665457319
    ],
    "mPS": [
        1.00769291240385, 1.00012629745797
    ],
    "xPA": [
        55.5296301427997, 0
    ],
    "amru": [
        1000000, 1000000
    ],
    "amrl": [
        0, 0
    ],
    "omPH": [
        1.09976735427097e-09, 3.01247125066822e-10, -0.451046667330732, -1.4715988886289e-08, -8.56247578202523, -9.32869549853023, -3.79449725971109, -4.13362178707087, -4.98780896051891, -3.68780877248106, 
        -2.19922865710072, 1.27434360276502e-05, -70.4692106118449, -3.74510915710877, 2.75627933712662e-10, -61.8569930879855, -0.39392060698943, -0.251872852537303, -4.95227656975404e-07, -0.384785970050515, 
        -1.3353111092418e-06, -92.9390191272959, -1.18927536268147, -1.4344387811171, -4.26596585321021, -6.27274574631483, -0.841107323757038, -4.98351648601246, -5.82968647820182, 7.21239426986571e-06, 
        -55.1235264979271, -18.3294875590262, -17.4945315049606, -2.36559303545781, -16.670410347427, -7.33164726782923, -5.33164727197851, 0, -92.9390191272959, -92.9390191272959, 
        -92.9390191272959, -3.03247651803391e-05, -1.59783488343562, 1.50625691117426e-06, -0.760812916605353, -92.9390191272959, -61.1096769772732, -78.6289279245798, -4.96666688513815, -92.9390191272959, 
        -92.9390191272959, -92.9390191272959, -22.7864438908414, -1.5482052306475, -45.3509794903996, -9.18761772532778, -1.69829594838332, -5.87102669640255, -1.44318480200686, -0.429942250557612, 
        -92.9390191272959, -6.65885400887648, -92.9390191272959, -92.9390191272959, -2.97753324085458, -10.5140982271441, -92.9390191272959, -9.8116999628363, -92.9390191272959, -92.9390191272959, 
        -5.1243953828219, -10.6211640437152, -1.23372198762714e-11, -1.62028986236624, -0.307288229010886, -92.9390191272959, -19.0795570574028, -0.167346537668687, -3.10915159455931, -11.7296903723189, 
        -14.0213674804896, -4.62465816041819, -0.350048774322009, -90.5370845590808, -47.1231977630035, -15.9532674108908, -12.8637758976657, -13.891219014074, -13.8120130179312, -17.3638215268446, 
        -13.462869346835, -4.26839326542338, -1.76127039323429e-07, -0.784260225150035, -78.549426033727, -3.62297393540543, -1.94815113915107, -3.89682228857803e-08, -42.0431364119293, -92.9390191272959, 
        -0.383281267269728, 1.28048566452743e-07, -29.135739775515, -7.00493448237741, -22.0828918856053, -1.76346137714129, -2.56346156621643, -8.06346155480592, -9.03578623704197e-06, -4.04963020968847, 
        -92.9390191272959, -41.3887118754702, -2.25978990068313, -9.94320424800806e-06, -27.3438514917364, -11.7991108977264, -92.9390191272959, -92.9390191272959, -6.06460037195015, -8.43896258969882, 
        -92.9390191272959, -3.84802369101008, -27.4341728169029, -8.3512893116418, -7.40603494312988e-14, -5.76478720733591
    ],
    "bPS": [
        9.7185656259428e-07, 3.03688989582313e-07, 8.12862114096391e-06, 1.61723191563405e-05, 3.63873117564431e-06, 0.0123591139372686, 0.000161466667279339, 0.00710103835958136, 0.0733307282997826, 3.35545641378736e-06, 5.9397097616691e-06, 4.1256428832708e-07, 0.000233610019669182, 3.77663268419188e-12, 111.059533996029, 7.81787788907034e-06, 0.0134135823164055, 2.35882441202942e-05, 0.00721592026441547, 5.98467450405886e-05, 7.81623790447516e-06, 0.0158697789603122, 0.0598840498680997, 7.52419978786308e-06, 1.07865904294279e-05, 0.000724671783078414, 3.71682267269333e-06, 55.5861687744822, 5.27460087178865e-06, 2.13079620804787e-07, 3.62236424391812e-06, 3.10472617885326e-06, 0.00151993834022296, 7.75349473010584e-06, 0.000850233663915048, 7.22125846824416e-08, 0.00150100195115703, 7.69788581969553e-06, 8.98648252416955e-08, 1.35162368839166e-07, 6.38824558111949e-12, -7.48788969186563e-17, 
        0, 0, 0, 0, 0, 0, 0.0157452069465879, 0, 0, 0, 0, 0, 0, 0, 0, 0, 0, 0, 0, 0, 0, 0, 0, 0, 0, 54.7287929224859, 0, 14.5860109151085, 0, 0, 0, 0, 0, 0, 0, 0, 0, 0, 0, 0, 0, 0
    ]
  }
}
]