[
{
  "_key" : "Neutral-dbr-0-0000",
  "set" : "Neutral",
  "dbr" : {
    "NodeHandle": 0,
    "NodeTypeHY": 0,
    "NodeTypeMT": 0,
    "NodeStatusFMT": -1,
    "NodeStatusCH": 2,
    "IterDone": 224,
    "TK": 348.15,
    "P": 100000,
    "Vs": 1.00438176920961,
    "Vi": 0,
    "Ms": 2.014531,
    "Mi": 0,
    "Hs": 0,
    "Hi": 0,
    "Gs": -4799.41266155749,
    "IS": 0.119883759039643,
    "pH": 7.42142260704613,
    "pe": 10.0977127347363,
    "Eh": 0.696151161127615,
    "Tm": 0,
    "dt": 0,
    "bIC": [
        0.00774711904112246, 3.40039993239143e-06, 8.12862114096391e-06, 1.61723191563405e-05, 0.00428462590208231, 0.0123591139372686, 0.0311666709556853, 0.0227995378616867, 0.0733307282997826, 3.35545641378736e-06, 
        5.9397097616691e-06, 4.9264467999695e-06, 0.0256164605772068, 0.0112547021720737, 111.086332383778, 7.81787788907072e-06, 0.0134135823164055, 2.35882441202942e-05, 0.0108259318719403, 0.00869966154505443, 
        7.81623790447516e-06, 0.0158697789603122, 0.0598876180294951, 7.52419978786308e-06, 1.07865904294989e-05, 54.729517594269, 3.7168226726977e-06, 70.3211811215831, 1.02045803028765e-05, 7.12074730673477e-06, 
        3.62236424392201e-06, 3.10472617885326e-06, 0.00974403795341284, 7.75349473010663e-06, 0.0149644069557493, 6.63526862803183e-05, 0.00544411439344023, 7.69788581969553e-06, 3.78734939857819e-06, 3.70332376429926e-06, 
        8.11538129040612e-06, 0
    ],
    "rMB": [
        0, -4.00586722243845e-22, 1.93671036564229e-21, -7.01026763926728e-22, -8.20401607155394e-19, 0, 5.84536145098218e-18, 1.04637257717315e-17, 0, 0, 
        0, 8.0117344448769e-22, 0, 0, -3.50568502696345e-15, 4.54640536929462e-22, -2.00481136147974e-19, 2.25276241541158e-21, -7.1785140626097e-19, 0, 
        0, 0, -6.02212034217228e-18, 0, 1.23672348538441e-21, 0, -9.39414260808019e-23, 7.42621766348262e-15, 0, 0, 
        3.82384645773894e-22, 1.75256690981682e-22, -1.64080321431079e-18, -1.42036037660223e-22, 6.16022261466585e-18, 0, -8.20401607155394e-19, 0, 1.60234688897538e-21, 1.60234688897538e-21, 
        0, 3.61864131921494e-17
    ],
    "uIC": [
        -271.265423093233, -297.131831519178, -162.481145493162, -219.753688849627, -254.103274745481, -18.6822615867595, -142.103814775894, -242.560190646553, -25.8411784288201, -294.054510371196, 
        -138.653736819073, -288.348837057185, -82.6284379934072, -127.436031703822, -40.3392999620286, -32.1717743887335, -127.203881382787, -135.537228819998, -206.993596899101, -157.762450575002, 
        -246.159118359732, -14.2702311216422, -117.890372356673, -309.886897175465, -74.8593981830175, -1.79312196320696, -348.091348121588, -2.57271188402227, -291.842352073892, -25.1447847113036, 
        -325.625372549658, -255.295937668602, -208.602778344051, -108.818711456032, -290.928367247261, -181.786454158434, -248.319342086298, -200.376776826673, -382.620831082556, -399.049279221724, 
        -366.718760011794, 23.2508428646973
    ],
    "bSP": [
        0.00774634300218261, 3.09429478947032e-06, 0, 0, 0.00428100262304686, 0, 0.00654907389041171, 0.0156647824813619, 0, 0, 
        0, 4.37924780896238e-06, 0.0253832120051184, 0.0112547021685104, 0.026802614795871, 0, 0, 0, 0.00357464349008196, 0.00869966154503304, 
        0, 0, 0, 0, 0, 0, 0, 0.140284225389838, 4.96251298990712e-06, 6.90790542029284e-06, 
        0, 0, 0.00822432986977775, 0, 0.014120464428859, 6.62848993018374e-05, 0.00394332724673089, 0, 3.72188474243034e-06, 3.68074652482185e-06, 
        8.11537490216069e-06, 0
    ],
    "xDC": [
        3.60817013616657e-17, 8.79059435441851e-19, 3.40123099379099e-17, 8.25448762581173e-14, 6.43924438225394e-13, 8.03740059140496e-14, 1.03542094392677e-16, 1.6043372570263e-16, 6.91237840077942e-20, 2.9609565145275e-11, 
        7.61605601037609e-07, 1.44028115558839e-08, 6.77024855736079e-14, 3.3366769574033e-14, 9.43660920783568e-15, 2.18127740652839e-11, 8.51250564744788e-15, 4.82116803696321e-14, 5.99979686208895e-12, 2.12978801469386e-11, 
        3.33032300464995e-15, 1.4605303715637e-14, 2.05879077974391e-10, 1.03216291570177e-09, 9.22611443879403e-12, 2.0963557068689e-14, 3.30942309240021e-11, 2.80131450978651e-12, 1.53906742789131e-11, 1.6160489159537e-10, 
        0, 2.12152049936095e-11, 6.7749327030398e-23, 3.3069793991026e-34, 1.97879466926283e-17, 1.26919672997938e-17, 1.15329838234321e-23, 5.3305393576472e-21, 3.544001200376e-12, 1.02844730356329e-13, 
        3.0294928583801e-16, 3.04570915240885e-07, 8.30891218684217e-31, 1.36851193311593e-21, 4.59345081111406e-09, 6.82479896287855e-07, 6.19552108535522e-12, 7.44093182521599e-06, 1.54881699319283e-05, 6.8414922441216e-07, 
        4.80121724776593e-10, 3.75502025801517e-09, 2.81213823826418e-07, 3.33765634251182e-06, 1.71428104240384e-10, 3.30953740700047e-06, 7.32453221492961e-06, 0.000198566033619916, 0.00691702295482767, 6.23525534408752e-06, 
        1.09074453931122e-06, 7.22668258027068e-07, 2.78772289780011e-08, 7.06900285990241e-22, 3.44802931902881e-33, 2.06193975568397e-16, 2.27300739677537e-10, 8.88403500779632e-14, 2.21936066196612e-10, 3.47038037112343e-14, 
        1.52195852243596e-13, 1.71210936470073e-08, 1.07557268005851e-08, 9.61417251199983e-11, 2.18453018227921e-13, 3.44868019781852e-10, 4.66451485310088e-12, 7.99214578295296e-13, 1.60379901259724e-10, 2.51083662455331e-10, 
        1.68401823986163e-09, 0, 2.21075126326585e-10, 3.32436683173044e-06, 5.9397097616691e-06, 2.75774950528215e-24, 5.08073782866093e-10, 7.48951136970149e-12, 5.98243557828812e-09, 3.88633525885164e-10, 
        4.84951756466129e-14, 2.29936115197068e-10, 1.77421340005372e-10, 1.13982667967687e-11, 6.19976040966419e-10, 1.35688790141774e-11, 6.50030236102878e-08, 5.15392989975674e-11, 1.4375711709213e-07, 3.3044832947014e-07, 
        6.07928854131706e-25, 7.09865827954171e-25, 3.98295478346032e-30, 5.80779361699895e-24, 1.79640681823923e-22, 8.61359459986942e-24, 1.74786513803353e-25, 1.38912953435201e-23, 1.76253149707492e-31, 3.44231176711268e-24, 
        2.28316310186803e-26, 1.80964099754657e-24, 0, 0, 2.3216286489113e-24, 2.62085383430699e-25, 6.91686745140974e-28, 7.30731569209441e-22, 7.0474786657704e-22, 1.91576942100263e-23, 
        4.16499932370961e-14, 8.15660697640446e-13, 2.70597175251006e-12, 1.6430220576253e-18, 4.46954385454721e-20, 3.94394769492445e-05, 0.0133741131399792, 2.9699477071437e-08, 4.06394084842895e-08, 2.35473631622318e-05, 
        2.41549578095046e-10, 1.27343300744353e-06, 7.40034935314331e-06, 0.00690843379095899, 3.90476442415005e-05, 1.15261309096807e-05, 0.000281348127036102, 1.16093072222708e-06, 3.68208118722427e-07, 1.87395903155538e-16, 
        8.28567161608311e-17, 5.54980329477995e-16, 1.4979494544921e-14, 5.36052756362135e-15, 5.34230492196257e-17, 6.55772166304429e-19, 1.12761561944813e-17, 1.61370295686808e-16, 7.81623790447516e-06, 9.91543074063023e-08, 
        4.17019952171509e-06, 0.000124999420245186, 0.0597534166480075, 4.76291691147212e-06, 1.69690501831336e-07, 5.2459506932106e-14, 4.74701428519034e-06, 2.77718545021323e-06, 0, 0, 
        8.18493138609236e-14, 0, 0, 0, 0, 0, 0, 4.38079120618412e-08, 5.91501466746148e-11, 0, 
        0, 1.01362375876368e-06, 1.74429368550844e-14, 1.63848661771614e-17, 1.45389764374027e-09, 3.01673622191767e-08, 2.9060425451322e-09, 6.07449084734301e-10, 5.77797094409473e-10, 6.22378642889271e-14, 
        4.84504534191162e-10, 0, 0, 1.68439469831849e-08, 7.88131434274289e-08, 2.34404270572949e-12, 0, 2.93657941749982e-08, 0, 0, 
        9.56756051834327e-06, 0, 0, 0, 0, 0, 0, 0, 0, 0, 
        0, 0, 0, 0, 0, 1.72413862763033e-26, 1.42711632102467e-32, 0, 9.24278461554132e-32, 3.30437025525253e-25, 
        2.44889729295053e-21, 1.52447719110073e-19, 0, 0, 0, 0, 0, 4.11086490267408e-23, 0, 0, 
        1.95723218587275e-32, 0, 0, 1.63542634686361e-33, 1.13166265921111e-09, 1.30335676542816e-13, 4.34969412283512e-17, 2.03624473759956e-19, 5.20571992405035e-11, 7.80845419428492e-14, 
        1.96288351464615e-10, 1.35000993612207e-10, 4.66395268484673e-08, 7.48531869383047e-11, 6.46283360581425e-13, 0, 3.63691312340539e-06, 1.26545450507734e-20, 8.85301220162525e-17, 4.92400834737434e-29, 
        4.23361637593529e-24, 2.50678331634698e-11, 2.53767360214804e-14, 1.77270010734948e-12, 7.00469181829e-18, 5.30451102939305e-17, 6.32992367509606e-15, 8.89351881662069e-13, 7.73792385601508e-13, 5.10850447711281e-17, 
        1.81587856171218e-16, 4.38240404058312e-15, 1.06952680395265e-14, 5.82958697648258e-16, 2.13981066360395e-14, 2.32163542805038e-15, 3.94995099721756e-19, 7.0291423260164e-13, 3.16500271569299e-08, 0, 
        0, 0, 0, 3.82023019582373e-18, 3.82915370054431e-15, 8.93713731826337e-13, 7.35503698326045e-14, 5.85818725114123e-12, 3.59230587017327e-13, 3.65227461242833e-14, 
        9.99802980773322e-12, 2.12824663374463e-07, 1.7210641719649e-26, 6.72444409637006e-30, 2.54414702305416e-25, 3.35292413492356e-26, 5.2429214446786e-30, 1.80506394045894e-25, 2.3095191065861e-27, 1.62442547406248e-25, 
        8.14395042875796e-25, 6.63905770179738e-26, 2.61121882444768e-26, 3.53177251914223e-28, 0, 2.40312106442119e-22, 0, 2.54205460727483e-20, 3.07115543621152e-26, 0, 
        6.09326231950025e-32, 1.5537440715103e-24, 5.5547560790759e-19, 7.32059643329715e-14, 9.09277761214764e-13, 2.71003792097341e-29, 3.9383938894584e-29, 8.73989289450617e-32, 2.45193276738814e-11, 2.03209266067432e-31, 
        9.36776553376746e-27, 2.20795449902234e-24, 3.88336123270684e-25, 1.09789254101025e-07, 3.30829895171985e-18, 1.14748593865942e-08, 3.13038397634303e-06, 4.48438710487081e-12, 6.15906717745078e-09, 6.65029460825905e-11, 
        2.08143588360921e-07, 1.39088423965843e-07, 1.07882698523614e-08, 1.89034106119427e-11, 4.13375263369063e-10, 8.29698162526806e-10, 3.05749847013834e-11, 5.20093167439538e-14, 1.62220905784398e-09, 8.04504100258933e-11, 
        3.44056790049649e-09, 0, 4.00586660630518e-10, 2.48242587223954e-11, 2.70373968123619e-07, 2.67241983402399e-06, 1.61506965786302e-07, 1.18669388012056e-30, 3.54127976701386e-21, 2.85809691065013e-16, 
        7.88591525129948e-17, 4.38063938972719e-07, 1.86559893289709e-11, 2.99811576717988e-18, 3.16629395137031e-10, 6.5867093751956e-06, 7.2838613010797e-07, 1.1795788535711e-21, 7.82031269018296e-17, 0, 
        0, 0, 0, 0, 0, 0, 1.3912279394424e-05, 1.38794837751601e-17, 0.000810550456325072, 1.05290770457966e-09, 
        0, 0, 0, 0, 0, 0, 0, 0, 0, 0, 
        0, 5.01382322712999e-08, 4.64252199292896e-11, 1.76023209896428e-08, 3.16124561438891e-07, 1.96734886818591e-06, 5.58849934769725e-05, 0.00144252032546206, 9.67297727836197e-08, 0, 
        0, 0, 0, 0, 0, 7.69788581969553e-06, 0, 5.49478871298554e-21, 1.4894821588641e-24, 4.34199372850287e-32, 
        7.12992614197336e-27, 1.31972942816176e-29, 5.95648541477698e-25, 1.11390852898008e-16, 2.65839337949884e-10, 1.39408116423499e-12, 1.49130302940736e-10, 6.49295512144484e-08, 1.26496055639981e-11, 1.05994430884627e-10, 
        0, 2.53908072615778e-20, 2.57089855922461e-23, 1.53069894107776e-22, 6.9701601581272e-32, 2.69086511933552e-28, 7.15325434503012e-29, 0, 0, 0, 
        2.82700787361847e-22, 1.01391477851464e-17, 1.43744547097414e-15, 1.02739591247384e-14, 8.45455112011717e-14, 2.31785534891882e-17, 5.9876490943459e-23, 5.3531069483681e-31, 8.36143979486145e-24, 2.38909599657003e-23, 
        1.45007124062515e-16, 0, 3.03887938882121e-20, 6.2820168014433e-16, 0, 0, 0, 0, 0, 0, 
        0, 0, 0, 0, 0, 0, 0, 0, 0, 0, 
        0, 0, 0, 0, 0, 0, 1.17136407319828e-31, 4.4061455993436e-22, 4.28123438853274e-21, 2.57777905506638e-16, 
        4.67963765217017e-12, 2.2024297084007e-22, 7.67159108740985e-22, 4.98087158611236e-16, 2.78197937552208e-20, 1.12251107228038e-23, 4.02054331813278e-23, 8.42995467549686e-16, 2.29733955219723e-12, 1.12818956848747e-09, 
        1.54565665324169e-08, 1.38138041957994e-09, 1.62456789999802e-09, 2.04723827103144e-09, 1.30137513155748e-10, 3.7676337999789e-21, 2.61898644849433e-16, 1.33122973185665e-20, 1.08687388315475e-23, 1.57749895769113e-12, 
        9.6567233484519e-21, 2.56683077339356e-15, 3.5465061754475e-11, 9.89021105565734e-12, 4.6225193458382e-16, 3.96977088634732e-11, 0, 0, 1.09923955049524e-17, 2.08417511411969e-19, 
        4.28016192511227e-14, 2.43086557366553e-13, 2.24395415656002e-10, 1.95832854026293e-10, 4.39333480770765e-12, 1.779373257741e-14, 1.35835428677408e-14, 4.26337374461323e-17, 2.08775536104572e-12, 1.01187084872733e-12, 
        2.51356287531072e-14, 5.71506857041083e-17, 3.4563247680631e-16, 6.89375887243404e-27, 2.32369748514243e-12, 5.66449189798203e-17, 1.77603912925712e-10, 0, 1.02874199051436e-10, 3.13497507302011e-23, 
        3.13384598313165e-19, 2.86756010216079e-22, 6.38983231594453e-24, 3.830994274132e-22, 1.10091838885861e-20, 0, 4.58510761750919e-23, 6.38824537968635e-12, 2.29326012544338e-23, 2.6716546041616e-33, 
        0, 0, 0, 0, 1.84871332876421e-31, 8.85733589127119e-21, 0, 0, 0, 1.53469726272697e-31, 
        2.53990005147623e-28, 2.14331520779225e-26, 3.01896730226332e-25, 4.97648979442762e-24, 5.46669167589555e-24, 0, 1.77036866497738e-30, 0, 0.0123591139372686, 9.51086246840375e-06, 
        7.89198600328786e-07, 0.000162557289317494, 0, 0, 0, 9.72604635250336e-24, 0.0733305362679546, 0.000183175408100163, 1.01360332549125e-11, 2.13123349017553e-08, 
        0, 1.36198420801045e-12, 7.81787588035385e-06, 3.92238040311739e-16, 3.68393514037197e-30, 0, 0.0158697618592792, 0, 0, 0.000362232916902742, 
        0.000174867859287492, 1.03940843045924e-06, 7.78301177208001e-12, 9.50291610871557e-13, 4.20168962434017e-06, 8.55529220321246e-14, 3.75899835536889e-10, 0, 0, 0, 
        6.24270705900722e-09, 0.000818840979020311, 0, 0, 0, 0, 6.20108933079585e-06, 4.6403687078721e-08, 55.5296145720658, 0.0244183983142396, 
        0, 3.15569129471919e-33, 27.3643965642176, 7.27291059763401, 0, 0, 0, 0.00387317150109131, 0, 0, 
        0, 0, 0, 0, 0, 3.09429478947032e-06, 0, 0, 0.00428100262304686, 0, 
        0, 0, 0.0126916060025592, 0, 0.00297133610554027, 0, 0, 0, 0, 0, 
        0, 0, 0, 4.37924780896238e-06, 0, 0, 0, 0, 0, 0, 
        0, 0.0112547021685104, 0, 0, 0, 0.000603307384541691, 0, 0, 0, 0, 
        0.00869966154503304, 0, 0, 0, 0, 0, 0, 0, 0, 0, 
        0, 0, 0, 0, 0, 0, 0, 0, 0, 0, 
        0, 0, 0, 0, 0, 0, 6.90790542029284e-06, 0, 0, 0, 
        0, 0, 0, 0, 0, 0, 0, 0, 0, 0, 
        0, 0, 0, 0, 0, 0, 0.0063704406801516, 0, 0, 0, 
        0, 6.62848993018374e-05, 0, 0, 0, 0.00394332724673089, 0, 0, 0, 0, 
        0, 0, 1.24062824747678e-06, 0, 1.84037326241092e-06, 0, 0, 0, 0, 0, 
        0, 0, 0, 0, 0, 0, 0, 0, 8.11537490216069e-06, 0
    ],
    "gam": [
        0.74881025393127, 0.74881025393127, 0.10398652481079, 0.298179179514843, 0.74881025393127, 0.999993961983599, 0.74881025393127, 0.298179179514843, 0.064266779344562, 0.74881025393127, 
        0.74881025393127, 0.999993961983599, 0.298179179514843, 0.298179179514843, 0.064266779344562, 0.74881025393127, 0.064266779344562, 0.298179179514843, 0.298179179514843, 0.74881025393127, 
        0.999993961983599, 0.74881025393127, 0.141105323064194, 0.74881025393127, 0.298179179514843, 0.74881025393127, 0.298179179514843, 0.74881025393127, 0.298179179514843, 0.298179179514843, 
        0.298179179514843, 0.74881025393127, 0.064266779344562, 0.064266779344562, 0.298179179514843, 0.064266779344562, 0.000473386690312586, 0.74881025393127, 0.648779886586617, 0.74881025393127, 
        0.999993961983599, 0.298179179514843, 0.757659904904453, 0.999993961983599, 0.064266779344562, 0.757659904904453, 0.999993961983599, 0.298179179514843, 0.999993961983599, 0.757659904904453, 
        0.999993961983599, 0.74881025393127, 0.999993961983599, 0.313937219949547, 0.74881025393127, 0.999993961983599, 0.74881025393127, 0.999993961983599, 0.322582712812846, 0.74881025393127, 
        0.74881025393127, 0.74881025393127, 0.999993961983599, 0.064266779344562, 0.064266779344562, 0.298179179514843, 0.74881025393127, 0.064266779344562, 0.74881025393127, 0.999993961983599, 
        0.74881025393127, 0.0176814097174021, 0.74881025393127, 0.298179179514843, 0.74881025393127, 0.298179179514843, 0.74881025393127, 0.298179179514843, 0.298179179514843, 0.298179179514843, 
        0.298179179514843, 0.298179179514843, 0.74881025393127, 0.298179179514843, 0.718284703324201, 0.35294584098563, 0.74881025393127, 0.74881025393127, 0.298179179514843, 0.74881025393127, 
        0.74881025393127, 0.141105323064194, 0.298179179514843, 0.74881025393127, 0.298179179514843, 0.74881025393127, 0.74881025393127, 0.74881025393127, 0.999993961983599, 0.298179179514843, 
        0.999993961983599, 0.74881025393127, 0.74881025393127, 0.999993961983599, 0.328616043538241, 0.74881025393127, 0.74881025393127, 0.74881025393127, 0.298179179514843, 0.74881025393127, 
        0.74881025393127, 0.141105323064194, 0.00749720602556304, 0.00420712195924908, 0.298179179514843, 0.74881025393127, 0.999993961983599, 0.298179179514843, 0.74881025393127, 0.999993961983599, 
        0.74881025393127, 0.74881025393127, 0.999993961983599, 0.298179179514843, 0.298179179514843, 0.74881025393127, 0.743398716780139, 0.999993961983599, 0.74881025393127, 0.762037338143586, 
        0.999993961983599, 0.999993961983599, 0.74881025393127, 0.33883986666475, 0.74881025393127, 0.74881025393127, 0.999993961983599, 0.74881025393127, 0.999993961983599, 0.999993961983599, 
        0.74881025393127, 0.999993961983599, 0.378763645482927, 0.74881025393127, 0.999993961983599, 0.74881025393127, 0.74881025393127, 0.74881025393127, 0.326431864414428, 0.74881025393127, 
        0.999993961983599, 0.74881025393127, 0.754541323109467, 0.999993961983599, 0.999993961983599, 0.74881025393127, 0.729193488311802, 0.999993961983599, 0.298179179514843, 0.064266779344562, 
        0.298179179514843, 0.999993961983599, 0.298179179514843, 0.298179179514843, 0.298179179514843, 0.298179179514843, 0.298179179514843, 0.999993961983599, 0.74881025393127, 0.999993961983599, 
        0.74881025393127, 0.340166675178292, 0.064266779344562, 0.00749720602556304, 0.999993961983599, 0.74881025393127, 0.74881025393127, 0.999993961983599, 0.74881025393127, 0.74881025393127, 
        0.999993961983599, 0.74881025393127, 0.298179179514843, 0.74881025393127, 0.74881025393127, 0.298179179514843, 0.74881025393127, 0.999993961983599, 0.999993961983599, 0.74881025393127, 
        0.74881025393127, 0.74881025393127, 0.064266779344562, 0.326431864414428, 0.74881025393127, 0.999993961983599, 0.74881025393127, 0.141105323064194, 0.74881025393127, 0.298179179514843, 
        0.74881025393127, 0.298179179514843, 0.74881025393127, 0.74881025393127, 0.298179179514843, 0.0147171073813438, 0.000375979160353379, 0.0939194911995142, 0.064266779344562, 0.298179179514843, 
        0.74881025393127, 0.999993961983599, 0.298179179514843, 0.74881025393127, 0.298179179514843, 0.999993961983599, 0.0434593631444164, 0.74881025393127, 0.0939194911995142, 0.0939194911995142, 
        0.298179179514843, 0.064266779344562, 0.064266779344562, 0.064266779344562, 0.74881025393127, 0.064266779344562, 0.00749720602556304, 0.000473386690312586, 0.74881025393127, 0.74881025393127, 
        0.999993961983599, 0.74881025393127, 0.74881025393127, 0.999993961983599, 0.999993961983599, 0.999993961983599, 0.999993961983599, 0.298179179514843, 0.74881025393127, 1.61784283240578e-05, 
        0.729193488311802, 0.298179179514843, 0.00490270123035467, 0.999993961983599, 0.74881025393127, 0.298179179514843, 0.999993961983599, 0.74881025393127, 0.74881025393127, 0.298179179514843, 
        0.298179179514843, 0.999993961983599, 0.298179179514843, 0.74881025393127, 0.74881025393127, 0.999993961983599, 0.74881025393127, 0.74881025393127, 0.999993961983599, 0.298179179514843, 
        0.298179179514843, 0.298179179514843, 0.298179179514843, 0.339901649156755, 0.74881025393127, 0.298179179514843, 0.999993961983599, 0.298179179514843, 0.74881025393127, 0.298179179514843, 
        0.74881025393127, 0.999993961983599, 0.74881025393127, 0.064266779344562, 0.298179179514843, 0.74881025393127, 0.999993961983599, 0.74881025393127, 0.74881025393127, 0.141105323064194, 
        0.74881025393127, 0.298179179514843, 0.298179179514843, 0.74881025393127, 0.298179179514843, 0.298179179514843, 0.00749720602556304, 0.00749720602556304, 7.37926503221398e-05, 0.00749720602556304, 
        0.064266779344562, 0.064266779344562, 0.298179179514843, 0.74881025393127, 0.999993961983599, 0.298179179514843, 0.999993961983599, 0.0434593631444164, 0.74881025393127, 0.064266779344562, 
        0.064266779344562, 0.298179179514843, 0.064266779344562, 0.74881025393127, 0.000473386690312586, 0.999993961983599, 0.74881025393127, 0.298179179514843, 0.298179179514843, 0.00749720602556304, 
        0.999993961983599, 0.74881025393127, 0.999993961983599, 0.298179179514843, 0.999993961983599, 0.298179179514843, 0.74881025393127, 0.999993961983599, 0.74881025393127, 0.999993961983599, 
        0.74881025393127, 0.999993961983599, 0.999993961983599, 0.74881025393127, 0.999993961983599, 0.326431864414428, 0.74881025393127, 0.74881025393127, 0.999993961983599, 0.74881025393127, 
        0.312526900339459, 0.999993961983599, 0.74881025393127, 0.999993961983599, 0.999993961983599, 0.298179179514843, 0.999993961983599, 0.298179179514843, 0.999993961983599, 0.999993961983599, 
        0.74881025393127, 0.298179179514843, 0.298179179514843, 0.298179179514843, 0.298179179514843, 0.74881025393127, 0.74881025393127, 0.00749720602556304, 0.999993961983599, 0.298179179514843, 
        0.999993961983599, 0.999993961983599, 0.35294584098563, 0.298179179514843, 0.74881025393127, 0.999993961983599, 0.74881025393127, 0.74881025393127, 0.74881025393127, 0.999993961983599, 
        0.74881025393127, 0.999993961983599, 0.298179179514843, 0.74881025393127, 0.999993961983599, 0.74881025393127, 0.999993961983599, 0.339371098811454, 0.74881025393127, 0.999993961983599, 
        0.74881025393127, 0.74881025393127, 0.999993961983599, 0.74881025393127, 0.312526900339459, 0.73934345983164, 0.00749720602556304, 1.61784283240578e-05, 0.298179179514843, 0.064266779344562, 
        0.298179179514843, 0.74881025393127, 0.298179179514843, 0.064266779344562, 0.298179179514843, 0.298179179514843, 0.999993961983599, 0.74881025393127, 0.999993961983599, 0.298179179514843, 
        0.298179179514843, 0.999993961983599, 0.298179179514843, 0.0434593631444164, 1.61784283240578e-05, 0.000473386690312586, 0.00749720602556304, 2.99631843465629e-09, 4.76271239651894e-14, 1.62375057300908e-11, 
        0.064266779344562, 0.064266779344562, 0.298179179514843, 0.74881025393127, 0.999993961983599, 0.298179179514843, 0.064266779344562, 0.00749720602556304, 0.064266779344562, 0.064266779344562, 
        0.000473386690312586, 0.064266779344562, 0.298179179514843, 0.298179179514843, 0.00749720602556304, 1.61784283240578e-05, 0.064266779344562, 0.298179179514843, 0.298179179514843, 0.74881025393127, 
        0.999993961983599, 0.298179179514843, 0.298179179514843, 0.999993961983599, 0.0434593631444164, 0.74881025393127, 0.064266779344562, 0.064266779344562, 0.298179179514843, 0.74881025393127, 
        0.999993961983599, 0.74881025393127, 0.298179179514843, 0.064266779344562, 0.064266779344562, 0.064266779344562, 0.000473386690312586, 0.74881025393127, 0.064266779344562, 0.298179179514843, 
        0.74881025393127, 1.61784283240578e-05, 0.298179179514843, 0.74881025393127, 0.74881025393127, 0.74881025393127, 0.74881025393127, 0.999993961983599, 0.298179179514843, 0.999993961983599, 
        0.298179179514843, 0.298179179514843, 0.298179179514843, 0.298179179514843, 0.00749720602556304, 0.999993961983599, 0.74881025393127, 0.999993961983599, 0.298179179514843, 0.999993961983599, 
        0.999993961983599, 0.74881025393127, 0.999993961983599, 0.74881025393127, 0.298179179514843, 0.74881025393127, 0.999993961983599, 0.74881025393127, 0.298179179514843, 0.00749720602556304, 
        0.999993961983599, 0.298179179514843, 0.999993961983599, 0.74881025393127, 0.298179179514843, 0.064266779344562, 0.74881025393127, 0.999993961983599, 0.74881025393127, 0.999993961983599, 
        0.648779886586617, 0.298179179514843, 0.74881025393127, 0.74881025393127, 0.999993961983599, 0.74881025393127, 0.74881025393127, 0.74881025393127, 0.74881025393127, 7.37926503221398e-05, 
        7.37926503221398e-05, 0.298179179514843, 0.00749720602556304, 0.999993961983599, 0.00749720602556304, 0.298179179514843, 0.298179179514843, 0.999993961983599, 0.298179179514843, 0.999993961983599, 
        0.298179179514843, 0.0434593631444164, 2.99631843465629e-09, 0.064266779344562, 0.74881025393127, 0.999993961983599, 2.99631843465629e-09, 0.064266779344562, 0.298179179514843, 0.0176814097174021, 
        0.298179179514843, 0.74881025393127, 0.999993961983599, 0.74881025393127, 0.298179179514843, 0.064266779344562, 0.064266779344562, 0.298179179514843, 0.729193488311802, 0.999993961983599, 
        0.337242072815018, 0.772214392074148, 0.999993961983599, 0.74881025393127, 0.999993961983599, 0.729193488311802, 0.743398716780139, 0.738557540525748, 0.74881025393127, 0.999993961983599, 
        0.999993961983599, 0.999993961983599, 0.74881025393127, 0.729193488311802, 0.999993961983599, 0.74881025393127, 0.729193488311802, 0.999993961983599, 0.718284703324201, 0.999993961983599, 
        0.999993961983599, 0.757659904904453, 0.999993961983599, 0.064266779344562, 0.298179179514843, 0.00749720602556304, 0.064266779344562, 0.298179179514843, 0.74881025393127, 0.312526900339459, 
        0.74881025393127, 0.33483382054694, 0.999993961983599, 0.73934345983164, 0.298179179514843, 0.74881025393127, 0.832743684693667, 0.817189062334973, 0.99998790999113, 1, 
        1, 1, 1, 1, 1, 1, 1, 1, 1, 1, 
        1, 1, 1, 1, 1, 1, 1, 1, 1, 1, 
        1, 1, 1, 1, 1, 1, 1, 1, 1, 1, 
        1, 1, 1, 1, 1, 1, 1, 1, 1, 1, 
        1, 1, 1, 1, 1, 1, 1, 1, 1, 1, 
        1, 1, 1, 1, 1, 1, 1, 1, 1, 1, 
        1, 1, 1, 1, 1, 1, 1, 1, 1, 1, 
        1, 1, 1, 1, 1, 1, 1, 1, 1, 1, 
        1, 1, 1, 1, 1, 1, 1, 1, 1, 1, 
        1, 1, 1, 1, 1, 1, 1, 1, 1, 1, 
        1, 1, 1, 1, 1, 1, 1, 1, 1, 1, 
        1, 1, 1, 1, 1, 1, 1, 1, 1, 1, 
        1, 1, 1, 1, 1, 1, 1, 1, 1, 1
    ],
    "dll": [
        0, 0, 0, 0, 0, 0, 0, 0, 0, 0, 
        0, 0, 0, 0, 0, 0, 0, 0, 0, 0, 
        0, 0, 0, 0, 0, 0, 0, 0, 0, 0, 
        0, 0, 0, 0, 0, 0, 0, 0, 0, 0, 
        0, 0, 0, 0, 0, 0, 0, 0, 0, 0, 
        0, 0, 0, 0, 0, 0, 0, 0, 0, 0, 
        0, 0, 0, 0, 0, 0, 0, 0, 0, 0, 
        0, 0, 0, 0, 0, 0, 0, 0, 0, 0, 
        0, 0, 0, 0, 0, 0, 0, 0, 0, 0, 
        0, 0, 0, 0, 0, 0, 0, 0, 0, 0, 
        0, 0, 0, 0, 0, 0, 0, 0, 0, 0, 
        0, 0, 0, 0, 0, 0, 0, 0, 0, 0, 
        0, 0, 0, 0, 0, 0, 0, 0, 0, 0, 
        0, 0, 0, 0, 0, 0, 0, 0, 0, 0, 
        0, 0, 0, 0, 0, 0, 0, 0, 0, 0, 
        0, 0, 0, 0, 0, 0, 0, 0, 0, 0, 
        0, 0, 0, 0, 0, 0, 0, 0, 0, 0, 
        0, 0, 0, 0, 0, 0, 0, 0, 0, 0, 
        0, 0, 0, 0, 0, 0, 0, 0, 0, 0, 
        0, 0, 0, 0, 0, 0, 0, 0, 0, 0, 
        0, 0, 0, 0, 0, 0, 0, 0, 0, 0, 
        0, 0, 0, 0, 0, 0, 0, 0, 0, 0, 
        0, 0, 0, 0, 0, 0, 0, 0, 0, 0, 
        0, 0, 0, 0, 0, 0, 0, 0, 0, 0, 
        0, 0, 0, 0, 0, 0, 0, 0, 0, 0, 
        0, 0, 0, 0, 0, 0, 0, 0, 0, 0, 
        0, 0, 0, 0, 0, 0, 0, 0, 0, 0, 
        0, 0, 0, 0, 0, 0, 0, 0, 0, 0, 
        0, 0, 0, 0, 0, 0, 0, 0, 0, 0, 
        0, 0, 0, 0, 0, 0, 0, 0, 0, 0, 
        0, 0, 0, 0, 0, 0, 0, 0, 0, 0, 
        0, 0, 0, 0, 0, 0, 0, 0, 0, 0, 
        0, 0, 0, 0, 0, 0, 0, 0, 0, 0, 
        0, 0, 0, 0, 0, 0, 0, 0, 0, 0, 
        0, 0, 0, 0, 0, 0, 0, 0, 0, 0, 
        0, 0, 0, 0, 0, 0, 0, 0, 0, 0, 
        0, 0, 0, 0, 0, 0, 0, 0, 0, 0, 
        0, 0, 0, 0, 0, 0, 0, 0, 0, 0, 
        0, 0, 0, 0, 0, 0, 0, 0, 0, 0, 
        0, 0, 0, 0, 0, 0, 0, 0, 0, 0, 
        0, 0, 0, 0, 0, 0, 0, 0, 0, 0, 
        0, 0, 0, 0, 0, 0, 0, 0, 0, 0, 
        0, 0, 0, 0, 0, 0, 0, 0, 0, 0, 
        0, 0, 0, 0, 0, 0, 0, 0, 0, 0, 
        0, 0, 0, 0, 0, 0, 0, 0, 0, 0, 
        0, 0, 0, 0, 0, 0, 0, 0, 0, 0, 
        0, 0, 0, 0, 0, 0, 0, 0, 0, 0, 
        0, 0, 0, 0, 0, 0, 0, 0, 0, 0, 
        0, 0, 0, 0, 0, 0, 0, 0, 0, 0, 
        0, 0, 0, 0, 0, 0, 0, 0, 0, 0, 
        0, 0, 0, 0, 0, 0, 0, 0, 0, 0, 
        0, 0, 0, 0, 0, 0, 0, 0, 0, 0, 
        0, 0, 0, 0, 0, 0, 0, 0, 0, 0, 
        0, 0, 0, 0, 0, 0, 0, 0, 0, 0, 
        0, 0, 0, 0, 0, 0, 0, 0, 0, 0, 
        0, 0, 0, 0, 0, 0, 0, 0, 0, 0, 
        0, 0, 0, 0, 0, 0, 0, 0, 0, 0, 
        0, 0, 0, 0, 0, 0, 0, 0, 0, 0, 
        0, 0, 0, 0, 0, 0, 0, 0, 0, 0, 
        0, 0, 0, 0, 0, 0, 0, 0, 0, 0, 
        0, 0, 0, 0, 0, 0, 0, 0, 0, 0, 
        0, 0, 0, 0, 0, 0, 0, 0, 0, 0, 
        0, 0, 0, 0, 0, 0, 0, 0, 0, 0, 
        0, 0, 0, 0, 0, 0, 0, 0, 0, 0, 
        0, 0, 0, 0, 0, 0, 0, 0, 0, 0, 
        0, 0, 0, 0, 0, 0, 0, 0, 0, 0, 
        0, 0, 0, 0, 0, 0, 0, 0, 0, 0, 
        0, 0, 0, 0, 0, 0, 0, 0, 0, 0, 
        0, 0, 0, 0, 0, 0, 0, 0, 0, 0
    ],
    "dul": [
        1000000, 1000000, 1000000, 1000000, 1000000, 1000000, 1000000, 1000000, 1000000, 1000000, 
        1000000, 1000000, 1000000, 1000000, 1000000, 1000000, 1000000, 1000000, 1000000, 1000000, 
        1000000, 1000000, 1000000, 1000000, 1000000, 1000000, 1000000, 1000000, 1000000, 1000000, 
        1000000, 1000000, 1000000, 1000000, 1000000, 1000000, 1000000, 1000000, 1000000, 1000000, 
        1000000, 1000000, 1000000, 1000000, 1000000, 1000000, 1000000, 1000000, 1000000, 1000000, 
        1000000, 1000000, 1000000, 1000000, 1000000, 1000000, 1000000, 1000000, 1000000, 1000000, 
        1000000, 1000000, 1000000, 1000000, 1000000, 1000000, 1000000, 1000000, 1000000, 1000000, 
        1000000, 1000000, 1000000, 1000000, 1000000, 1000000, 1000000, 1000000, 1000000, 1000000, 
        1000000, 1000000, 1000000, 1000000, 1000000, 1000000, 1000000, 1000000, 1000000, 1000000, 
        1000000, 1000000, 1000000, 1000000, 1000000, 1000000, 1000000, 1000000, 1000000, 1000000, 
        1000000, 1000000, 1000000, 1000000, 1000000, 1000000, 1000000, 1000000, 1000000, 1000000, 
        1000000, 1000000, 1000000, 1000000, 1000000, 1000000, 1000000, 1000000, 1000000, 1000000, 
        1000000, 1000000, 1000000, 1000000, 1000000, 1000000, 1000000, 1000000, 1000000, 1000000, 
        1000000, 1000000, 1000000, 1000000, 1000000, 1000000, 1000000, 1000000, 1000000, 1000000, 
        1000000, 1000000, 1000000, 1000000, 1000000, 1000000, 1000000, 1000000, 1000000, 1000000, 
        1000000, 1000000, 1000000, 1000000, 1000000, 1000000, 1000000, 1000000, 1000000, 1000000, 
        1000000, 1000000, 1000000, 1000000, 1000000, 1000000, 1000000, 1000000, 1000000, 1000000, 
        1000000, 1000000, 1000000, 1000000, 1000000, 1000000, 1000000, 1000000, 1000000, 1000000, 
        1000000, 1000000, 1000000, 1000000, 1000000, 1000000, 1000000, 1000000, 1000000, 1000000, 
        1000000, 1000000, 1000000, 1000000, 1000000, 1000000, 1000000, 1000000, 1000000, 1000000, 
        1000000, 1000000, 1000000, 1000000, 1000000, 1000000, 1000000, 1000000, 1000000, 1000000, 
        1000000, 1000000, 1000000, 1000000, 1000000, 1000000, 1000000, 1000000, 1000000, 1000000, 
        1000000, 1000000, 1000000, 1000000, 1000000, 1000000, 1000000, 1000000, 1000000, 1000000, 
        1000000, 1000000, 1000000, 1000000, 1000000, 1000000, 1000000, 1000000, 1000000, 1000000, 
        1000000, 1000000, 1000000, 1000000, 1000000, 1000000, 1000000, 1000000, 1000000, 1000000, 
        1000000, 1000000, 1000000, 1000000, 1000000, 1000000, 1000000, 1000000, 1000000, 1000000, 
        1000000, 1000000, 1000000, 1000000, 1000000, 1000000, 1000000, 1000000, 1000000, 1000000, 
        1000000, 1000000, 1000000, 1000000, 1000000, 1000000, 1000000, 1000000, 1000000, 1000000, 
        1000000, 1000000, 1000000, 1000000, 1000000, 1000000, 1000000, 1000000, 1000000, 1000000, 
        1000000, 1000000, 1000000, 1000000, 1000000, 1000000, 1000000, 1000000, 1000000, 1000000, 
        1000000, 1000000, 1000000, 1000000, 1000000, 1000000, 1000000, 1000000, 1000000, 1000000, 
        1000000, 1000000, 1000000, 1000000, 1000000, 1000000, 1000000, 1000000, 1000000, 1000000, 
        1000000, 1000000, 1000000, 1000000, 1000000, 1000000, 1000000, 1000000, 1000000, 1000000, 
        1000000, 1000000, 1000000, 1000000, 1000000, 1000000, 1000000, 1000000, 1000000, 1000000, 
        1000000, 1000000, 1000000, 1000000, 1000000, 1000000, 1000000, 1000000, 1000000, 1000000, 
        1000000, 1000000, 1000000, 1000000, 1000000, 1000000, 1000000, 1000000, 1000000, 1000000, 
        1000000, 1000000, 1000000, 1000000, 1000000, 1000000, 1000000, 1000000, 1000000, 1000000, 
        1000000, 1000000, 1000000, 1000000, 1000000, 1000000, 1000000, 1000000, 1000000, 1000000, 
        1000000, 1000000, 1000000, 1000000, 1000000, 1000000, 1000000, 1000000, 1000000, 1000000, 
        1000000, 1000000, 1000000, 1000000, 1000000, 1000000, 1000000, 1000000, 1000000, 1000000, 
        1000000, 1000000, 1000000, 1000000, 1000000, 1000000, 1000000, 1000000, 1000000, 1000000, 
        1000000, 1000000, 1000000, 1000000, 1000000, 1000000, 1000000, 1000000, 1000000, 1000000, 
        1000000, 1000000, 1000000, 1000000, 1000000, 1000000, 1000000, 1000000, 1000000, 1000000, 
        1000000, 1000000, 1000000, 1000000, 1000000, 1000000, 1000000, 1000000, 1000000, 1000000, 
        1000000, 1000000, 1000000, 1000000, 1000000, 1000000, 1000000, 1000000, 1000000, 1000000, 
        1000000, 1000000, 1000000, 1000000, 1000000, 1000000, 1000000, 1000000, 1000000, 1000000, 
        1000000, 1000000, 1000000, 1000000, 1000000, 1000000, 1000000, 1000000, 1000000, 1000000, 
        1000000, 1000000, 1000000, 1000000, 1000000, 1000000, 1000000, 1000000, 1000000, 1000000, 
        1000000, 1000000, 1000000, 1000000, 1000000, 1000000, 1000000, 1000000, 1000000, 1000000, 
        1000000, 1000000, 1000000, 1000000, 1000000, 1000000, 1000000, 1000000, 1000000, 1000000, 
        1000000, 1000000, 1000000, 1000000, 1000000, 1000000, 1000000, 1000000, 1000000, 1000000, 
        1000000, 1000000, 1000000, 1000000, 1000000, 1000000, 1000000, 1000000, 1000000, 1000000, 
        1000000, 1000000, 1000000, 1000000, 1000000, 1000000, 1000000, 1000000, 1000000, 1000000, 
        1000000, 1000000, 1000000, 1000000, 1000000, 1000000, 1000000, 1000000, 1000000, 1000000, 
        1000000, 1000000, 1000000, 1000000, 1000000, 1000000, 1000000, 1000000, 1000000, 1000000, 
        1000000, 1000000, 1000000, 1000000, 1000000, 1000000, 1000000, 1000000, 1000000, 1000000, 
        1000000, 1000000, 1000000, 1000000, 1000000, 1000000, 1000000, 1000000, 1000000, 1000000, 
        1000000, 1000000, 1000000, 1000000, 1000000, 1000000, 1000000, 1000000, 1000000, 1000000, 
        1000000, 1000000, 1000000, 1000000, 1000000, 1000000, 1000000, 1000000, 1000000, 1000000, 
        1000000, 1000000, 1000000, 1000000, 1000000, 1000000, 1000000, 1000000, 1000000, 1000000, 
        1000000, 1000000, 1000000, 1000000, 1000000, 1000000, 1000000, 1000000, 1000000, 1000000, 
        1000000, 1000000, 1000000, 1000000, 1000000, 1000000, 1000000, 1000000, 1000000, 1000000, 
        1000000, 1000000, 1000000, 1000000, 1000000, 1000000, 1000000, 1000000, 1000000, 1000000, 
        1000000, 1000000, 1000000, 1000000, 1000000, 1000000, 1000000, 1000000, 1000000, 1000000, 
        1000000, 1000000, 1000000, 1000000, 1000000, 1000000, 1000000, 1000000, 1000000, 1000000, 
        1000000, 1000000, 1000000, 1000000, 1000000, 1000000, 1000000, 1000000, 1000000, 1000000, 
        1000000, 1000000, 1000000, 1000000, 1000000, 1000000, 1000000, 1000000, 1000000, 1000000, 
        1000000, 1000000, 1000000, 1000000, 1000000, 1000000, 1000000, 1000000, 1000000, 1000000, 
        1000000, 1000000, 1000000, 1000000, 1000000, 1000000, 1000000, 1000000, 1000000, 1000000
    ],
    "aPH": [
        0, 0, 0, 0, 0, 0, 0, 0, 0, 0, 
        0, 0, 0, 0, 0, 0, 0, 0, 0, 0, 
        0, 0, 0, 0, 0, 0, 0, 0, 0, 0, 
        0, 0, 0, 0, 0, 0, 0, 0, 0, 0, 
        0, 0, 0, 0, 0, 0, 0, 0, 0, 0, 
        0, 0, 0, 0, 0, 0, 0, 0, 0, 0, 
        0, 0, 0, 0, 0, 0, 0, 0, 0, 0, 
        0, 0, 0, 0, 0, 0, 0, 0, 0, 0, 
        0, 0, 0, 0, 0, 0, 0, 0, 0, 0, 
        0, 0, 0, 0, 0, 0, 0, 0, 0, 0, 
        0, 0, 0, 0, 0, 0, 0, 0, 0, 0, 
        0, 0, 0, 0, 0, 0, 0, 0, 0, 0, 
        0, 0, 0, 0, 0, 0
    ],
    "xPH": [
        55.723031427974, 34.6617255601658, 0, 0.00387317150109131, 0, 0, 0, 0, 0, 0, 
        0, 3.09429478947032e-06, 0, 0, 0.00428100262304686, 0, 0, 0, 0.0126916060025592, 0, 
        0.00297133610554027, 0, 0, 0, 0, 0, 0, 0, 0, 4.37924780896238e-06, 
        0, 0, 0, 0, 0, 0, 0, 0.0112547021685104, 0, 0, 
        0, 0.000603307384541691, 0, 0, 0, 0, 0.00869966154503304, 0, 0, 0, 
        0, 0, 0, 0, 0, 0, 0, 0, 0, 0, 
        0, 0, 0, 0, 0, 0, 0, 0, 0, 0, 
        0, 0, 6.90790542029284e-06, 0, 0, 0, 0, 0, 0, 0, 
        0, 0, 0, 0, 0, 0, 0, 0, 0, 0, 
        0, 0, 0.0063704406801516, 0, 0, 0, 0, 6.62848993018374e-05, 0, 0, 
        0, 0.00394332724673089, 0, 0, 0, 0, 0, 0, 1.24062824747678e-06, 0, 
        1.84037326241092e-06, 0, 0, 0, 0, 0, 0, 0, 0, 0, 
        0, 0, 0, 0, 8.11537490216069e-06, 0
    ],
    "vPS": [
        0.00102812447023476, 1.00335181087533
    ],
    "mPS": [
        1.00769325545102, 1.00036882035422
    ],
    "xPA": [
        55.5296145720658, 0
    ],
    "amru": [
        1000000, 1000000
    ],
    "amrl": [
        0, 0
    ],
    "omPH": [
        1.55075582566894e-09, 2.01662859875709e-10, -0.451653281387221, -1.29884077950021e-08, -8.65958529331233, -9.51878338813032, -3.69954971105242, -4.04063336078029, -5.17766606853822, -3.8776655820316, 
        -2.19921668404459, 2.4391467647217e-05, -70.2821482927794, -3.75100858861632, -6.07122058278955e-10, -61.6660595413303, -0.394571435632852, -0.251947460565776, -5.46615220277787e-07, -0.384791381083994, 
        -6.74633787357175e-06, -7.35658254987729, -1.18669256597125, -1.42973353195908, -4.45952708810602, -5.70311481856744, -0.651224856012432, -4.69598878475251, -5.8296729793069, 2.05900632064991e-05, 
        -55.1249644293368, -18.1415553615843, -17.3055150480804, -2.36798031378452, -16.6745029855195, -7.33370175819561, -5.33370174544655, -1.23433915718822e-14, -92.9390191272959, -92.9390191272959, 
        -24.0222810584293, 3.88703743059229e-05, -1.78760927032545, -9.44855809561165, -10.2110285970623, -14.8595797621942, -1.23433915718822e-14, -4.16357568011122, -14.6067491182728, -92.9390191272959, 
        -9.09293094915174, -28.4774514863218, -22.7221609059753, -1.42103808710149, -45.2909886028072, -9.12809147619739, -1.61285385407792, -5.7855869737507, -1.54761202730892, -0.534370175524869, 
        -92.9390191272959, -6.47153267880555, -11.1547562669243, -15.8317988393658, -2.88462317970411, -10.4250788304094, -4.3833681187201, -9.81401562851875, -3.70317278213779, -4.30317274611456, 
        -5.12694322887025, -10.6213341439602, -6.10072128483121e-11, -1.53169177052344, -2.73832692912617, -0.408326906302195, -19.1804802818701, -0.268617854912335, -3.21030645000133, -11.6571447764228, 
        -13.7754674239506, -4.62861919146781, -0.350407755262728, -90.3426664214501, -46.9286585080897, -15.9549575758677, -12.8615443642591, -13.8887459641619, -23.2580201719418, -17.2741731426172, 
        -13.462802435584, -4.27031509618865, -2.93791579484415e-07, -0.777212075814936, -78.5487075185544, -3.81481868541465, -1.94670325627302, -3.51964033650511e-08, -42.042762985343, -92.9390191272959, 
        -0.385782518606672, 1.73092737428777e-07, -29.0385217666354, -6.8528725716965, -21.9461905086035, -1.99475381852247, -2.79475350482644, -8.29475353988413, -7.72132207926321e-06, -4.88135569019948, 
        -2.25462395290411e-06, -42.0267206219229, -4.50316575025595, -1.11956279893329, -28.3652134666209, -18.1205221404348, -2.88671853003164, -16.0742761377513, -6.91272649738786, -11.1568062474296, 
        -42.100196270219, -5.89227951343085, -28.4566023731832, -8.00435118530333, -2.46867831437648e-14, -5.76478716494599
    ],
    "bPS": [
        7.76038939841892e-07, 3.06105142888626e-07, 8.1286211409639e-06, 1.61723191563405e-05, 3.62327903545082e-06, 0.0123591139372686, 0.000199198751033984, 0.00713475538032476, 0.0733307282997826, 3.35545641378736e-06, 5.9397097616691e-06, 5.4719899100712e-07, 0.000233248572088199, 3.5632824433876e-12, 111.059529768982, 7.81787788907031e-06, 0.0134135823164055, 2.35882441202942e-05, 0.00725128838185834, 2.13800484022431e-14, 7.81623790447516e-06, 0.0158697789603122, 0.0598876180294951, 7.52419978786308e-06, 1.07865904294334e-05, 0.000724465833805484, 3.71682267268992e-06, 55.5862389042968, 5.24206731296234e-06, 2.1284188643811e-07, 3.62236424391781e-06, 3.10472617885326e-06, 0.00151970808363507, 7.75349473010363e-06, 0.000843942526890204, 6.7786978480872e-08, 0.00150078714670934, 7.69788581969553e-06, 6.54646561144673e-08, 2.25772394654593e-08, 6.38824537968635e-12, -3.61864131921494e-17, 
        0, 0, 0, 0, 0, 0, 0.0244183983142396, 0, 0, 0, 0, 0, 0, 0, 0, 0, 0, 0, 0, 0, 0, 0, 0, 0, 0, 54.7287931284352, 0, 14.5946579918965, 0, 0, 0, 0, 0, 0, 0, 0, 0, 0, 0, 0, 0, 0
    ]
  }
}
]