[
{
  "_key" : "Neutral-ipm",
  "set" : "Neutral",
  "ipm" : {
    "ID_key": "Node:0:time:0:dt:0",
    "pa_PE": 1,
    "PV": 1,
    "PSOL": 0,
    "PAalp": "+",
    "PSigm": "+",
    "Lads": 0,
    "FIa": 0,
    "FIat": 0,
    "pa_DB": 1e-17,
    "pa_DHB": 1e-13,
    "pa_EPS": 1e-10,
    "pa_DK": 1e-05,
    "pa_DS": 1e-20,
    "pa_DF": 0.01,
    "pa_DFM": 0.01,
    "pa_DP": 130,
    "pa_IIM": 7000,
    "pa_PD": 2,
    "pa_PRD": -5,
    "pa_AG": 1,
    "pa_DGC": 0,
    "pa_PSM": 1,
    "pa_GAR": 1,
    "pa_GAH": 1000,
    "pa_XwMin": 1e-13,
    "pa_ScMin": 1e-13,
    "pa_DcMin": 1e-33,
    "pa_PhMin": 1e-20,
    "pa_ICmin": 1e-05,
    "pa_PC": 2,
    "pa_DFYw": 1e-05,
    "pa_DFYaq": 1e-05,
    "pa_DFYid": 1e-05,
    "pa_DFYr": 1e-05,
    "pa_DFYh": 1e-05,
    "pa_DFYc": 1e-05,
    "pa_DFYs": 1e-06,
    "pa_DW": 1,
    "pa_DT": 0,
    "pa_GAS": 0.001,
    "pa_DG": 1000,
    "pa_DNS": 12.05,
    "pa_IEPS": 0.001,
    "pKin": 1,
    "pa_DKIN": 1e-10,
    "pa_PLLG": 30000,
    "tMin": 0,
    "sMod": [
        "3NNSNNNN", "INNINNNN"
    ],
    "LsMod": [
        2, 0, 4, 
        0, 0, 0
    ],
    "PMc": [
        0.0640000030398369, 0, 0, 0, 0, 0, 0, 0
    ],
    "LsMdc": [
        2, 0, 0, 
        0, 0, 0
    ],
    "DMc": [
        4, 1.17549435082229e-38, 4, 1.17549435082229e-38, 6.65000009536743, 0.189999997615814, 4, 1.17549435082229e-38, 4, 1.17549435082229e-38, 
        -1, 1.17549435082229e-38, 4, 1.17549435082229e-38, 4, 1.17549435082229e-38, 4, 1.17549435082229e-38, 4, 1.17549435082229e-38, 
        4, 1.17549435082229e-38, -1, 1.17549435082229e-38, 4, 1.17549435082229e-38, 4, 1.17549435082229e-38, 4, 1.17549435082229e-38, 
        4, 1.17549435082229e-38, 4, 1.17549435082229e-38, 4, 1.17549435082229e-38, 4, 1.17549435082229e-38, 4, 1.17549435082229e-38, 
        -1, 1.17549435082229e-38, 4, 1.17549435082229e-38, 9, 1.17549435082229e-38, 4, 1.17549435082229e-38, 4, 1.17549435082229e-38, 
        4, 1.17549435082229e-38, 4, 1.17549435082229e-38, 4, 1.17549435082229e-38, 4, 1.17549435082229e-38, 4, 1.17549435082229e-38, 
        4, 1.17549435082229e-38, 4, 1.17549435082229e-38, 4, 1.17549435082229e-38, 4, 1.17549435082229e-38, 4, 1.17549435082229e-38, 
        4, 1.17549435082229e-38, 4, 1.17549435082229e-38, 4, 1.17549435082229e-38, 1.17549435082229e-38, 1.17549435082229e-38, 4, 1.17549435082229e-38, 
        -1, 1.17549435082229e-38, 4, 1.17549435082229e-38, 4.5, 1.17549435082229e-38, 0, 1.17549435082229e-38, 4, 1.17549435082229e-38, 
        4.5, 1.17549435082229e-38, -1, 1.17549435082229e-38, 4, 1.17549435082229e-38, -1, 1.17549435082229e-38, 4.5, 1.17549435082229e-38, 
        -1, 1.17549435082229e-38, 4, 1.17549435082229e-38, -1, 1.17549435082229e-38, 4.55000019073486, 0.0900000035762787, 4, 1.17549435082229e-38, 
        -1, 1.17549435082229e-38, 4, 1.17549435082229e-38, -1, 1.17549435082229e-38, 4.8600001335144, 0.150000005960464, 4, 1.17549435082229e-38, 
        4, 1.17549435082229e-38, 4, 1.17549435082229e-38, -1, 1.17549435082229e-38, 4, 1.17549435082229e-38, 4, 1.17549435082229e-38, 
        4, 1.17549435082229e-38, 4, 1.17549435082229e-38, 4, 1.17549435082229e-38, 4, 1.17549435082229e-38, -1, 1.17549435082229e-38, 
        4, 1.17549435082229e-38, 1.17549435082229e-38, 1.17549435082229e-38, 4, 1.17549435082229e-38, 4, 1.17549435082229e-38, 4, 1.17549435082229e-38, 
        4, 1.17549435082229e-38, 4, 1.17549435082229e-38, 4, 1.17549435082229e-38, 4, 1.17549435082229e-38, 4, 1.17549435082229e-38, 
        4, 1.17549435082229e-38, 4, 1.17549435082229e-38, 4, 1.17549435082229e-38, 4, 1.17549435082229e-38, 2.5, 1.17549435082229e-38, 
        6, 1.17549435082229e-38, 4, 1.17549435082229e-38, 4, 1.17549435082229e-38, 4, 1.17549435082229e-38, 4, 1.17549435082229e-38, 
        4, 1.17549435082229e-38, 9, 1.17549435082229e-38, 4, 1.17549435082229e-38, 4, 1.17549435082229e-38, 4, 1.17549435082229e-38, 
        4, 1.17549435082229e-38, 4, 1.17549435082229e-38, 4, 1.17549435082229e-38, -1, 1.17549435082229e-38, 4, 1.17549435082229e-38, 
        -1, 1.17549435082229e-38, 4, 1.17549435082229e-38, 4, 1.17549435082229e-38, -1, 1.17549435082229e-38, 5.07999992370605, 0.159999996423721, 
        4, 1.17549435082229e-38, 4, 1.17549435082229e-38, 4, 1.17549435082229e-38, 4, 1.17549435082229e-38, 4, 1.17549435082229e-38, 
        4, 1.17549435082229e-38, 9, 1.17549435082229e-38, 4, 1.17549435082229e-38, 9, 1.17549435082229e-38, 4, 1.17549435082229e-38, 
        4, 1.17549435082229e-38, -1, 1.17549435082229e-38, 4, 1.17549435082229e-38, 4, 1.17549435082229e-38, -1, 1.17549435082229e-38, 
        4, 1.17549435082229e-38, 4, 1.17549435082229e-38, -1, 1.17549435082229e-38, 4, 1.17549435082229e-38, 4, 1.17549435082229e-38, 
        4, 1.17549435082229e-38, 3.71000003814697, 0.00999999977648258, -1, 1.17549435082229e-38, 4, 1.17549435082229e-38, 4.76000022888184, 0.200000002980232, 
        -1, 1.17549435082229e-38, 0, 1.17549435082229e-38, 4, 1.17549435082229e-38, 5.46000003814697, 0.219999998807907, 4, 1.17549435082229e-38, 
        4, 1.17549435082229e-38, -1, 1.17549435082229e-38, 4, 1.17549435082229e-38, -1, 1.17549435082229e-38, -1, 1.17549435082229e-38, 
        4, 1.17549435082229e-38, -1, 1.17549435082229e-38, 7.03999996185303, 0.219999998807907, 4, 1.17549435082229e-38, -1, 1.17549435082229e-38, 
        4, 1.17549435082229e-38, 4, 1.17549435082229e-38, 4, 1.17549435082229e-38, 5, 1.17549435082229e-38, 4, 1.17549435082229e-38, 
        -1, 1.17549435082229e-38, 4, 1.17549435082229e-38, 4.32000017166138, 0.0599999986588955, -1, 1.17549435082229e-38, -1, 1.17549435082229e-38, 
        4, 1.17549435082229e-38, 3, 1.17549435082229e-38, -1, 1.17549435082229e-38, 4, 1.17549435082229e-38, 4, 1.17549435082229e-38, 
        4, 1.17549435082229e-38, -1, 1.17549435082229e-38, 4, 1.17549435082229e-38, 4, 1.17549435082229e-38, 4, 1.17549435082229e-38, 
        4, 1.17549435082229e-38, 4, 1.17549435082229e-38, -1, 1.17549435082229e-38, 4, 1.17549435082229e-38, -1, 1.17549435082229e-38, 
        4, 1.17549435082229e-38, 5.51000022888184, 0.219999998807907, 4, 1.17549435082229e-38, 4, 1.17549435082229e-38, -1, 1.17549435082229e-38, 
        4, 1.17549435082229e-38, 4, 1.17549435082229e-38, -1, 1.17549435082229e-38, 4, 1.17549435082229e-38, 4, 1.17549435082229e-38, 
        -1, 1.17549435082229e-38, 4, 1.17549435082229e-38, 4, 1.17549435082229e-38, 4, 1.17549435082229e-38, 4, 1.17549435082229e-38, 
        4, 1.17549435082229e-38, 4, 1.17549435082229e-38, -1, 1.17549435082229e-38, -1, 1.17549435082229e-38, 4, 1.17549435082229e-38, 
        4, 1.17549435082229e-38, 4, 1.17549435082229e-38, 4, 1.17549435082229e-38, 5, 1.17549435082229e-38, 4, 1.17549435082229e-38, 
        -1, 1.17549435082229e-38, 4, 1.17549435082229e-38, 9, 1.17549435082229e-38, 4, 1.17549435082229e-38, 4, 1.17549435082229e-38, 
        4, 1.17549435082229e-38, 4, 1.17549435082229e-38, 4, 1.17549435082229e-38, 4, 1.17549435082229e-38, 4, 1.17549435082229e-38, 
        6, 1.17549435082229e-38, 9, 1.17549435082229e-38, 6, 1.17549435082229e-38, 4, 1.17549435082229e-38, 4, 1.17549435082229e-38, 
        4, 1.17549435082229e-38, -1, 1.17549435082229e-38, 4, 1.17549435082229e-38, 4, 1.17549435082229e-38, 4, 1.17549435082229e-38, 
        -1, 1.17549435082229e-38, 11, 1.17549435082229e-38, 4, 1.17549435082229e-38, 6, 1.17549435082229e-38, 6, 1.17549435082229e-38, 
        4, 1.17549435082229e-38, 4, 1.17549435082229e-38, 4, 1.17549435082229e-38, 4, 1.17549435082229e-38, 4, 1.17549435082229e-38, 
        4, 1.17549435082229e-38, 4, 1.17549435082229e-38, 4, 1.17549435082229e-38, 4, 1.17549435082229e-38, 4, 1.17549435082229e-38, 
        -1, 1.17549435082229e-38, 4, 1.17549435082229e-38, 4, 1.17549435082229e-38, -1, 1.17549435082229e-38, -1, 1.17549435082229e-38, 
        -1, 1.17549435082229e-38, 4, 1.17549435082229e-38, 4, 1.17549435082229e-38, 4, 1.17549435082229e-38, 4, 1.17549435082229e-38, 
        3, 1.17549435082229e-38, 4, 1.17549435082229e-38, 3, 1.17549435082229e-38, -1, 1.17549435082229e-38, 4, 1.17549435082229e-38, 
        4, 1.17549435082229e-38, -1, 1.17549435082229e-38, 4, 1.17549435082229e-38, 4, 1.17549435082229e-38, 4, 1.17549435082229e-38, 
        4, 1.17549435082229e-38, -1, 1.17549435082229e-38, 4, 1.17549435082229e-38, 4, 1.17549435082229e-38, 4, 1.17549435082229e-38, 
        -1, 1.17549435082229e-38, 4, 1.17549435082229e-38, 4, 1.17549435082229e-38, -1, 1.17549435082229e-38, 4, 1.17549435082229e-38, 
        4, 1.17549435082229e-38, 4, 1.17549435082229e-38, 4, 1.17549435082229e-38, 5.5, 1.17549435082229e-38, 4, 1.17549435082229e-38, 
        4, 1.17549435082229e-38, -1, 1.17549435082229e-38, 4, 1.17549435082229e-38, 4, 1.17549435082229e-38, 4, 1.17549435082229e-38, 
        4, 1.17549435082229e-38, -1, 1.17549435082229e-38, 4, 1.17549435082229e-38, 4, 1.17549435082229e-38, 4, 1.17549435082229e-38, 
        4, 1.17549435082229e-38, -1, 1.17549435082229e-38, 4, 1.17549435082229e-38, 4, 1.17549435082229e-38, 9, 1.17549435082229e-38, 
        4, 1.17549435082229e-38, 4, 1.17549435082229e-38, 4, 1.17549435082229e-38, 4, 1.17549435082229e-38, 4, 1.17549435082229e-38, 
        4, 1.17549435082229e-38, 4, 1.17549435082229e-38, 4, 1.17549435082229e-38, 6, 1.17549435082229e-38, 4, 1.17549435082229e-38, 
        4, 1.17549435082229e-38, 4, 1.17549435082229e-38, 4, 1.17549435082229e-38, 4, 1.17549435082229e-38, -1, 1.17549435082229e-38, 
        4, 1.17549435082229e-38, -1, 1.17549435082229e-38, 11, 1.17549435082229e-38, 4, 1.17549435082229e-38, 4, 1.17549435082229e-38, 
        4, 1.17549435082229e-38, 4, 1.17549435082229e-38, 4, 1.17549435082229e-38, 4, 1.17549435082229e-38, 4, 1.17549435082229e-38, 
        -1, 1.17549435082229e-38, 4, 1.17549435082229e-38, 4, 1.17549435082229e-38, 4, 1.17549435082229e-38, 4, 1.17549435082229e-38, 
        -1, 1.17549435082229e-38, 4, 1.17549435082229e-38, -1, 1.17549435082229e-38, 4, 1.17549435082229e-38, -1, 1.17549435082229e-38, 
        4, 1.17549435082229e-38, 4, 1.17549435082229e-38, -1, 1.17549435082229e-38, 4, 1.17549435082229e-38, -1, 1.17549435082229e-38, 
        4, 1.17549435082229e-38, -1, 1.17549435082229e-38, -1, 1.17549435082229e-38, 4, 1.17549435082229e-38, -1, 1.17549435082229e-38, 
        5, 1.17549435082229e-38, 4, 1.17549435082229e-38, 4, 1.17549435082229e-38, -1, 1.17549435082229e-38, 4, 1.17549435082229e-38, 
        4.5, 1.17549435082229e-38, -1, 1.17549435082229e-38, 4, 1.17549435082229e-38, -1, 1.17549435082229e-38, -1, 1.17549435082229e-38, 
        4, 1.17549435082229e-38, -1, 1.17549435082229e-38, 4, 1.17549435082229e-38, -1, 1.17549435082229e-38, -1, 1.17549435082229e-38, 
        4, 1.17549435082229e-38, 4, 1.17549435082229e-38, 4, 1.17549435082229e-38, 4, 1.17549435082229e-38, 4, 1.17549435082229e-38, 
        4, 1.17549435082229e-38, 4, 1.17549435082229e-38, 4, 1.17549435082229e-38, -1, 1.17549435082229e-38, 4, 1.17549435082229e-38, 
        -1, 1.17549435082229e-38, -1, 1.17549435082229e-38, 6, 1.17549435082229e-38, 4, 1.17549435082229e-38, 4, 1.17549435082229e-38, 
        -1, 1.17549435082229e-38, 4, 1.17549435082229e-38, 4, 1.17549435082229e-38, 4, 1.17549435082229e-38, -1, 1.17549435082229e-38, 
        4, 1.17549435082229e-38, -1, 1.17549435082229e-38, 4, 1.17549435082229e-38, 4, 1.17549435082229e-38, -1, 1.17549435082229e-38, 
        4, 1.17549435082229e-38, -1, 1.17549435082229e-38, 5.48000001907349, 0.109999999403954, 4, 1.17549435082229e-38, -1, 1.17549435082229e-38, 
        4, 1.17549435082229e-38, 4, 1.17549435082229e-38, -1, 1.17549435082229e-38, 4, 1.17549435082229e-38, 4.5, 1.17549435082229e-38, 
        3.5, 1.17549435082229e-38, 4, 1.17549435082229e-38, 4, 1.17549435082229e-38, 4, 1.17549435082229e-38, 4, 1.17549435082229e-38, 
        4, 1.17549435082229e-38, 4, 1.17549435082229e-38, 4, 1.17549435082229e-38, 4, 1.17549435082229e-38, 4, 1.17549435082229e-38, 
        4, 1.17549435082229e-38, -1, 1.17549435082229e-38, 4, 1.17549435082229e-38, -1, 1.17549435082229e-38, 4, 1.17549435082229e-38, 
        4, 1.17549435082229e-38, -1, 1.17549435082229e-38, 4, 1.17549435082229e-38, 11, 1.17549435082229e-38, 4, 1.17549435082229e-38, 
        4, 1.17549435082229e-38, 4, 1.17549435082229e-38, 4, 1.17549435082229e-38, 4, 1.17549435082229e-38, 4, 1.17549435082229e-38, 
        4, 1.17549435082229e-38, 4, 1.17549435082229e-38, 4, 1.17549435082229e-38, 4, 1.17549435082229e-38, -1, 1.17549435082229e-38, 
        4, 1.17549435082229e-38, 4, 1.17549435082229e-38, 4, 1.17549435082229e-38, 4, 1.17549435082229e-38, 4, 1.17549435082229e-38, 
        4, 1.17549435082229e-38, 4, 1.17549435082229e-38, 4, 1.17549435082229e-38, 4, 1.17549435082229e-38, 4, 1.17549435082229e-38, 
        4, 1.17549435082229e-38, 4, 1.17549435082229e-38, 4, 1.17549435082229e-38, 4, 1.17549435082229e-38, 4, 1.17549435082229e-38, 
        -1, 1.17549435082229e-38, 4, 1.17549435082229e-38, 4, 1.17549435082229e-38, -1, 1.17549435082229e-38, 11, 1.17549435082229e-38, 
        4, 1.17549435082229e-38, 4, 1.17549435082229e-38, 4, 1.17549435082229e-38, 4, 1.17549435082229e-38, 4, 1.17549435082229e-38, 
        -1, 1.17549435082229e-38, 4, 1.17549435082229e-38, 4, 1.17549435082229e-38, 4, 1.17549435082229e-38, 4, 1.17549435082229e-38, 
        4, 1.17549435082229e-38, 4, 1.17549435082229e-38, 4, 1.17549435082229e-38, 4, 1.17549435082229e-38, 4, 1.17549435082229e-38, 
        4, 1.17549435082229e-38, 4, 1.17549435082229e-38, 4, 1.17549435082229e-38, 4, 1.17549435082229e-38, 4, 1.17549435082229e-38, 
        4, 1.17549435082229e-38, 4, 1.17549435082229e-38, -1, 1.17549435082229e-38, 4, 1.17549435082229e-38, -1, 1.17549435082229e-38, 
        4, 1.17549435082229e-38, 4, 1.17549435082229e-38, 4, 1.17549435082229e-38, 4, 1.17549435082229e-38, 4, 1.17549435082229e-38, 
        -1, 1.17549435082229e-38, 4, 1.17549435082229e-38, -1, 1.17549435082229e-38, 4, 1.17549435082229e-38, -1, 1.17549435082229e-38, 
        -1, 1.17549435082229e-38, 4, 1.17549435082229e-38, -1, 1.17549435082229e-38, 4, 1.17549435082229e-38, 4, 1.17549435082229e-38, 
        4, 1.17549435082229e-38, -1, 1.17549435082229e-38, 4, 1.17549435082229e-38, 4, 1.17549435082229e-38, 4, 1.17549435082229e-38, 
        -1, 1.17549435082229e-38, 4, 1.17549435082229e-38, -1, 1.17549435082229e-38, 4, 1.17549435082229e-38, 4, 1.17549435082229e-38, 
        4, 1.17549435082229e-38, 4, 1.17549435082229e-38, -1, 1.17549435082229e-38, 4, 1.17549435082229e-38, -1, 1.17549435082229e-38, 
        1.17549435082229e-38, 1.17549435082229e-38, 4, 1.17549435082229e-38, 4, 1.17549435082229e-38, 4, 1.17549435082229e-38, -1, 1.17549435082229e-38, 
        4, 1.17549435082229e-38, 4, 1.17549435082229e-38, 4, 1.17549435082229e-38, 4, 1.17549435082229e-38, 6, 1.17549435082229e-38, 
        6, 1.17549435082229e-38, 4, 1.17549435082229e-38, 4, 1.17549435082229e-38, -1, 1.17549435082229e-38, 4, 1.17549435082229e-38, 
        4, 1.17549435082229e-38, 4, 1.17549435082229e-38, -1, 1.17549435082229e-38, 4, 1.17549435082229e-38, -1, 1.17549435082229e-38, 
        4, 1.17549435082229e-38, 11, 1.17549435082229e-38, 4, 1.17549435082229e-38, 4, 1.17549435082229e-38, 4, 1.17549435082229e-38, 
        -1, 1.17549435082229e-38, 4, 1.17549435082229e-38, 4, 1.17549435082229e-38, 4, 1.17549435082229e-38, 1.17549435082229e-38, 1.17549435082229e-38, 
        4, 1.17549435082229e-38, 4, 1.17549435082229e-38, -1, 1.17549435082229e-38, 4, 1.17549435082229e-38, 4, 1.17549435082229e-38, 
        4, 1.17549435082229e-38, 4, 1.17549435082229e-38, 4, 1.17549435082229e-38, 3, 1.17549435082229e-38, -1, 1.17549435082229e-38, 
        5.40000009536743, 1.17549435082229e-38, 5.40000009536743, 1.17549435082229e-38, 0, 1.17549435082229e-38, 4, 1.17549435082229e-38, -1, 1.17549435082229e-38, 
        3, 1.17549435082229e-38, 3.71000003814697, 0.00999999977648258, 3.46000003814697, 0.0799999982118607, 4, 1.17549435082229e-38, -1, 1.17549435082229e-38, 
        -1, 1.17549435082229e-38, -1, 1.17549435082229e-38, 4, 1.17549435082229e-38, 3, 1.17549435082229e-38, -1, 1.17549435082229e-38, 
        4, 1.17549435082229e-38, 3, 1.17549435082229e-38, -1, 1.17549435082229e-38, 2.5, 1.17549435082229e-38, -1, 1.17549435082229e-38, 
        -1, 1.17549435082229e-38, 4.5, 1.17549435082229e-38, -1, 1.17549435082229e-38, 4, 1.17549435082229e-38, 4, 1.17549435082229e-38, 
        4, 1.17549435082229e-38, 4, 1.17549435082229e-38, 4, 1.17549435082229e-38, 4, 1.17549435082229e-38, 4.5, 1.17549435082229e-38, 
        4, 1.17549435082229e-38, 5.30999994277954, -0.0700000002980232, 0, 1.17549435082229e-38, 3.5, 1.17549435082229e-38, 4, 1.17549435082229e-38, 
        4, 1.17549435082229e-38, 10.6499996185303, 1.17549435082229e-38, 9, 1.17549435082229e-38, -1, 1.17549435082229e-38
    ],
    "LsMdc2": [
        0, 0, 0, 
        0, 0, 0
    ],
    "LsPhl": [
        0, 0, 
        0, 0, 
        0, 0, 
        0, 0, 
        0, 0, 
        0, 0, 
        0, 0, 
        0, 0, 
        0, 0, 
        0, 0, 
        0, 0, 
        0, 0, 
        0, 0, 
        0, 0, 
        0, 0, 
        0, 0, 
        0, 0, 
        0, 0, 
        0, 0, 
        0, 0, 
        0, 0, 
        0, 0, 
        0, 0, 
        0, 0, 
        0, 0, 
        0, 0, 
        0, 0, 
        0, 0, 
        0, 0, 
        0, 0, 
        0, 0, 
        0, 0, 
        0, 0, 
        0, 0, 
        0, 0, 
        0, 0, 
        0, 0, 
        0, 0, 
        0, 0, 
        0, 0, 
        0, 0, 
        0, 0, 
        0, 0, 
        0, 0, 
        0, 0, 
        0, 0, 
        0, 0, 
        0, 0, 
        0, 0, 
        0, 0, 
        0, 0, 
        0, 0, 
        0, 0, 
        0, 0, 
        0, 0, 
        0, 0, 
        0, 0, 
        0, 0, 
        0, 0, 
        0, 0, 
        0, 0, 
        0, 0, 
        0, 0, 
        0, 0, 
        0, 0, 
        0, 0, 
        0, 0, 
        0, 0, 
        0, 0, 
        0, 0, 
        0, 0, 
        0, 0, 
        0, 0, 
        0, 0, 
        0, 0, 
        0, 0, 
        0, 0, 
        0, 0, 
        0, 0, 
        0, 0, 
        0, 0, 
        0, 0, 
        0, 0, 
        0, 0, 
        0, 0, 
        0, 0, 
        0, 0, 
        0, 0, 
        0, 0, 
        0, 0, 
        0, 0, 
        0, 0, 
        0, 0, 
        0, 0, 
        0, 0, 
        0, 0, 
        0, 0, 
        0, 0, 
        0, 0, 
        0, 0, 
        0, 0, 
        0, 0, 
        0, 0, 
        0, 0, 
        0, 0, 
        0, 0, 
        0, 0, 
        0, 0, 
        0, 0, 
        0, 0, 
        0, 0, 
        0, 0, 
        0, 0, 
        0, 0, 
        0, 0, 
        0, 0, 
        0, 0, 
        0, 0, 
        0, 0, 
        0, 0, 
        0, 0, 
        0, 0, 
        0, 0, 
        0, 0, 
        0, 0, 
        0, 0
    ],
    "SorMc": [
        0, 0, 0, 0, 0, 0, 0, 0, 0, 0, 0, 0, 0, 0, 0, 0, 
        0, 0, 0, 0, 0, 0, 0, 0, 0, 0, 0, 0, 0, 0, 0, 0
    ],
    "LsISmo": [
        0, 0, 0, 0, 
        0, 0, 0, 0
    ],
    "LsESmo": [
        0, 0, 0, 0, 
        0, 0, 0, 0
    ],
    "kMod": [
        "NNNNNN", "NNNNNN", "NNNNNN", "NNNNNN", "NNNNNN", "NNNNNN", "NNNNNN", "NNNNNN", "NNNNNN", "NNNNNN", 
        "NNNNNN", "NNNNNN", "NNNNNN", "NNNNNN", "NNNNNN", "NNNNNN", "NNNNNN", "NNNNNN", "NNNNNN", "NNNNNN", 
        "NNNNNN", "NNNNNN", "NNNNNN", "NNNNNN", "NNNNNN", "NNNNNN", "NNNNNN", "NNNNNN", "NNNNNN", "NNNNNN", 
        "NNNNNN", "NNNNNN", "NNNNNN", "NNNNNN", "NNNNNN", "NNNNNN", "NNNNNN", "NNNNNN", "NNNNNN", "NNNNNN", 
        "NNNNNN", "NNNNNN", "NNNNNN", "NNNNNN", "NNNNNN", "NNNNNN", "NNNNNN", "NNNNNN", "NNNNNN", "NNNNNN", 
        "NNNNNN", "NNNNNN", "NNNNNN", "NNNNNN", "NNNNNN", "NNNNNN", "NNNNNN", "NNNNNN", "NNNNNN", "NNNNNN", 
        "NNNNNN", "NNNNNN", "NNNNNN", "NNNNNN", "NNNNNN", "NNNNNN", "NNNNNN", "NNNNNN", "NNNNNN", "NNNNNN", 
        "NNNNNN", "NNNNNN", "NNNNNN", "NNNNNN", "NNNNNN", "NNNNNN", "NNNNNN", "NNNNNN", "NNNNNN", "NNNNNN", 
        "NNNNNN", "NNNNNN", "NNNNNN", "NNNNNN", "NNNNNN", "NNNNNN", "NNNNNN", "NNNNNN", "NNNNNN", "NNNNNN", 
        "NNNNNN", "NNNNNN", "NNNNNN", "NNNNNN", "NNNNNN", "NNNNNN", "NNNNNN", "NNNNNN", "NNNNNN", "NNNNNN", 
        "NNNNNN", "NNNNNN", "NNNNNN", "NNNNNN", "NNNNNN", "NNNNNN", "NNNNNN", "NNNNNN", "NNNNNN", "NNNNNN", 
        "NNNNNN", "NNNNNN", "NNNNNN", "NNNNNN", "NNNNNN", "NNNNNN", "NNNNNN", "NNNNNN", "NNNNNN", "NNNNNN", 
        "NNNNNN", "NNNNNN", "NNNNNN", "NNNNNN", "NNNNNN", "NNNNNN"
    ],
    "LsKin": [
        0, 0, 0, 0, 0, 0, 
        0, 0, 0, 0, 0, 0, 
        0, 0, 0, 0, 0, 0, 
        0, 0, 0, 0, 0, 0, 
        0, 0, 0, 0, 0, 0, 
        0, 0, 0, 0, 0, 0, 
        0, 0, 0, 0, 0, 0, 
        0, 0, 0, 0, 0, 0, 
        0, 0, 0, 0, 0, 0, 
        0, 0, 0, 0, 0, 0, 
        0, 0, 0, 0, 0, 0, 
        0, 0, 0, 0, 0, 0, 
        0, 0, 0, 0, 0, 0, 
        0, 0, 0, 0, 0, 0, 
        0, 0, 0, 0, 0, 0, 
        0, 0, 0, 0, 0, 0, 
        0, 0, 0, 0, 0, 0, 
        0, 0, 0, 0, 0, 0, 
        0, 0, 0, 0, 0, 0, 
        0, 0, 0, 0, 0, 0, 
        0, 0, 0, 0, 0, 0, 
        0, 0, 0, 0, 0, 0, 
        0, 0, 0, 0, 0, 0, 
        0, 0, 0, 0, 0, 0, 
        0, 0, 0, 0, 0, 0, 
        0, 0, 0, 0, 0, 0, 
        0, 0, 0, 0, 0, 0, 
        0, 0, 0, 0, 0, 0, 
        0, 0, 0, 0, 0, 0, 
        0, 0, 0, 0, 0, 0, 
        0, 0, 0, 0, 0, 0, 
        0, 0, 0, 0, 0, 0, 
        0, 0, 0, 0, 0, 0, 
        0, 0, 0, 0, 0, 0, 
        0, 0, 0, 0, 0, 0, 
        0, 0, 0, 0, 0, 0, 
        0, 0, 0, 0, 0, 0, 
        0, 0, 0, 0, 0, 0, 
        0, 0, 0, 0, 0, 0, 
        0, 0, 0, 0, 0, 0, 
        0, 0, 0, 0, 0, 0, 
        0, 0, 0, 0, 0, 0, 
        0, 0, 0, 0, 0, 0, 
        0, 0, 0, 0, 0, 0, 
        0, 0, 0, 0, 0, 0, 
        0, 0, 0, 0, 0, 0, 
        0, 0, 0, 0, 0, 0, 
        0, 0, 0, 0, 0, 0, 
        0, 0, 0, 0, 0, 0, 
        0, 0, 0, 0, 0, 0, 
        0, 0, 0, 0, 0, 0, 
        0, 0, 0, 0, 0, 0, 
        0, 0, 0, 0, 0, 0, 
        0, 0, 0, 0, 0, 0, 
        0, 0, 0, 0, 0, 0, 
        0, 0, 0, 0, 0, 0, 
        0, 0, 0, 0, 0, 0, 
        0, 0, 0, 0, 0, 0, 
        0, 0, 0, 0, 0, 0, 
        0, 0, 0, 0, 0, 0, 
        0, 0, 0, 0, 0, 0, 
        0, 0, 0, 0, 0, 0, 
        0, 0, 0, 0, 0, 0, 
        0, 0, 0, 0, 0, 0, 
        0, 0, 0, 0, 0, 0, 
        0, 0, 0, 0, 0, 0, 
        0, 0, 0, 0, 0, 0, 
        0, 0, 0, 0, 0, 0, 
        0, 0, 0, 0, 0, 0, 
        0, 0, 0, 0, 0, 0, 
        0, 0, 0, 0, 0, 0, 
        0, 0, 0, 0, 0, 0, 
        0, 0, 0, 0, 0, 0, 
        0, 0, 0, 0, 0, 0, 
        0, 0, 0, 0, 0, 0, 
        0, 0, 0, 0, 0, 0, 
        0, 0, 0, 0, 0, 0, 
        0, 0, 0, 0, 0, 0, 
        0, 0, 0, 0, 0, 0, 
        0, 0, 0, 0, 0, 0, 
        0, 0, 0, 0, 0, 0, 
        0, 0, 0, 0, 0, 0, 
        0, 0, 0, 0, 0, 0, 
        0, 0, 0, 0, 0, 0, 
        0, 0, 0, 0, 0, 0, 
        0, 0, 0, 0, 0, 0, 
        0, 0, 0, 0, 0, 0, 
        0, 0, 0, 0, 0, 0, 
        0, 0, 0, 0, 0, 0, 
        0, 0, 0, 0, 0, 0, 
        0, 0, 0, 0, 0, 0, 
        0, 0, 0, 0, 0, 0, 
        0, 0, 0, 0, 0, 0, 
        0, 0, 0, 0, 0, 0, 
        0, 0, 0, 0, 0, 0, 
        0, 0, 0, 0, 0, 0, 
        0, 0, 0, 0, 0, 0, 
        0, 0, 0, 0, 0, 0, 
        0, 0, 0, 0, 0, 0, 
        0, 0, 0, 0, 0, 0, 
        0, 0, 0, 0, 0, 0, 
        0, 0, 0, 0, 0, 0, 
        0, 0, 0, 0, 0, 0, 
        0, 0, 0, 0, 0, 0, 
        0, 0, 0, 0, 0, 0, 
        0, 0, 0, 0, 0, 0, 
        0, 0, 0, 0, 0, 0, 
        0, 0, 0, 0, 0, 0, 
        0, 0, 0, 0, 0, 0, 
        0, 0, 0, 0, 0, 0, 
        0, 0, 0, 0, 0, 0, 
        0, 0, 0, 0, 0, 0, 
        0, 0, 0, 0, 0, 0, 
        0, 0, 0, 0, 0, 0, 
        0, 0, 0, 0, 0, 0, 
        0, 0, 0, 0, 0, 0, 
        0, 0, 0, 0, 0, 0, 
        0, 0, 0, 0, 0, 0, 
        0, 0, 0, 0, 0, 0, 
        0, 0, 0, 0, 0, 0, 
        0, 0, 0, 0, 0, 0, 
        0, 0, 0, 0, 0, 0, 
        0, 0, 0, 0, 0, 0, 
        0, 0, 0, 0, 0, 0, 
        0, 0, 0, 0, 0, 0, 
        0, 0, 0, 0, 0, 0
    ],
    "PfFact": [
        1, 
        1, 
        1, 
        1, 
        1, 
        1, 
        1, 
        1, 
        1, 
        1, 
        1, 
        1, 
        1, 
        1, 
        1, 
        1, 
        1, 
        1, 
        1, 
        1, 
        1, 
        1, 
        1, 
        1, 
        1, 
        1, 
        1, 
        1, 
        1, 
        1, 
        1, 
        1, 
        1, 
        1, 
        1, 
        1, 
        1, 
        1, 
        1, 
        1, 
        1, 
        1, 
        1, 
        1, 
        1, 
        1, 
        1, 
        1, 
        1, 
        1, 
        1, 
        1, 
        1, 
        1, 
        1, 
        1, 
        1, 
        1, 
        1, 
        1, 
        1, 
        1, 
        1, 
        1, 
        1, 
        1, 
        1, 
        1, 
        1, 
        1, 
        1, 
        1, 
        1, 
        1, 
        1, 
        1, 
        1, 
        1, 
        1, 
        1, 
        1, 
        1, 
        1, 
        1, 
        1, 
        1, 
        1, 
        1, 
        1, 
        1, 
        1, 
        1, 
        1, 
        1, 
        1, 
        1, 
        1, 
        1, 
        1, 
        1, 
        1, 
        1, 
        1, 
        1, 
        1, 
        1, 
        1, 
        1, 
        1, 
        1, 
        1, 
        1, 
        1, 
        1, 
        1, 
        1, 
        1, 
        1, 
        1, 
        1, 
        1, 
        1, 
        1, 
        1, 
        1, 
        1
    ],
    "LsUpt": [
        0, 0, 
        0, 0
    ],
    "B": [
        0.00774711904112246, 3.40039993239143e-06, 8.12862114096391e-06, 1.61723191563405e-05, 0.00428462590208231, 0.0123591139372686, 0.0311666709556853, 0.0227995378616867, 0.0733307282997826, 3.35545641378736e-06, 
        5.9397097616691e-06, 4.9264467999695e-06, 0.0256164605772068, 0.0112547021720737, 111.086332383778, 7.81787788907072e-06, 0.0134135823164055, 2.35882441202942e-05, 0.0108259318719403, 0.00869966154505443, 
        7.81623790447516e-06, 0.0158697789603122, 0.0598876180294951, 7.52419978786308e-06, 1.07865904294989e-05, 54.729517594269, 3.7168226726977e-06, 70.3211811215831, 1.02045803028765e-05, 7.12074730673477e-06, 
        3.62236424392201e-06, 3.10472617885326e-06, 0.00974403795341284, 7.75349473010663e-06, 0.0149644069557493, 6.63526862803183e-05, 0.00544411439344023, 7.69788581969553e-06, 3.78734939857819e-06, 3.70332376429926e-06, 
        8.11538129040612e-06, 0
    ],
    "Pparc": [
        1, 1, 1, 1, 1, 1, 1, 1, 1, 1, 
        1, 1, 1, 1, 1, 1, 1, 1, 1, 1, 
        1, 1, 1, 1, 1, 1, 1, 1, 1, 1, 
        1, 1, 1, 1, 1, 1, 1, 1, 1, 1, 
        1, 1, 1, 1, 1, 1, 1, 1, 1, 1, 
        1, 1, 1, 1, 1, 1, 1, 1, 1, 1, 
        1, 1, 1, 1, 1, 1, 1, 1, 1, 1, 
        1, 1, 1, 1, 1, 1, 1, 1, 1, 1, 
        1, 1, 1, 1, 1, 1, 1, 1, 1, 1, 
        1, 1, 1, 1, 1, 1, 1, 1, 1, 1, 
        1, 1, 1, 1, 1, 1, 1, 1, 1, 1, 
        1, 1, 1, 1, 1, 1, 1, 1, 1, 1, 
        1, 1, 1, 1, 1, 1, 1, 1, 1, 1, 
        1, 1, 1, 1, 1, 1, 1, 1, 1, 1, 
        1, 1, 1, 1, 1, 1, 1, 1, 1, 1, 
        1, 1, 1, 1, 1, 1, 1, 1, 1, 1, 
        1, 1, 1, 1, 1, 1, 1, 1, 1, 1, 
        1, 1, 1, 1, 1, 1, 1, 1, 1, 1, 
        1, 1, 1, 1, 1, 1, 1, 1, 1, 1, 
        1, 1, 1, 1, 1, 1, 1, 1, 1, 1, 
        1, 1, 1, 1, 1, 1, 1, 1, 1, 1, 
        1, 1, 1, 1, 1, 1, 1, 1, 1, 1, 
        1, 1, 1, 1, 1, 1, 1, 1, 1, 1, 
        1, 1, 1, 1, 1, 1, 1, 1, 1, 1, 
        1, 1, 1, 1, 1, 1, 1, 1, 1, 1, 
        1, 1, 1, 1, 1, 1, 1, 1, 1, 1, 
        1, 1, 1, 1, 1, 1, 1, 1, 1, 1, 
        1, 1, 1, 1, 1, 1, 1, 1, 1, 1, 
        1, 1, 1, 1, 1, 1, 1, 1, 1, 1, 
        1, 1, 1, 1, 1, 1, 1, 1, 1, 1, 
        1, 1, 1, 1, 1, 1, 1, 1, 1, 1, 
        1, 1, 1, 1, 1, 1, 1, 1, 1, 1, 
        1, 1, 1, 1, 1, 1, 1, 1, 1, 1, 
        1, 1, 1, 1, 1, 1, 1, 1, 1, 1, 
        1, 1, 1, 1, 1, 1, 1, 1, 1, 1, 
        1, 1, 1, 1, 1, 1, 1, 1, 1, 1, 
        1, 1, 1, 1, 1, 1, 1, 1, 1, 1, 
        1, 1, 1, 1, 1, 1, 1, 1, 1, 1, 
        1, 1, 1, 1, 1, 1, 1, 1, 1, 1, 
        1, 1, 1, 1, 1, 1, 1, 1, 1, 1, 
        1, 1, 1, 1, 1, 1, 1, 1, 1, 1, 
        1, 1, 1, 1, 1, 1, 1, 1, 1, 1, 
        1, 1, 1, 1, 1, 1, 1, 1, 1, 1, 
        1, 1, 1, 1, 1, 1, 1, 1, 1, 1, 
        1, 1, 1, 1, 1, 1, 1, 1, 1, 1, 
        1, 1, 1, 1, 1, 1, 1, 1, 1, 1, 
        1, 1, 1, 1, 1, 1, 1, 1, 1, 1, 
        1, 1, 1, 1, 1, 1, 1, 1, 1, 1, 
        1, 1, 1, 1, 1, 1, 1, 1, 1, 1, 
        1, 1, 1, 1, 1, 1, 1, 1, 1, 1, 
        1, 1, 1, 1, 1, 1, 1, 1, 1, 1, 
        1, 1, 1, 1, 1, 1, 1, 1, 1, 1, 
        1, 1, 1, 1, 1, 1, 1, 1, 1, 1, 
        1, 1, 1, 1, 1, 1, 1, 1, 1, 1, 
        1, 1, 1, 1, 1, 1, 1, 1, 1, 1, 
        1, 1, 1, 1, 1, 1, 1, 1, 1, 1, 
        1, 1, 1, 1, 1, 1, 1, 1, 1, 1, 
        1, 1, 1, 1, 1, 1, 1, 1, 1, 1, 
        1, 1, 1, 1, 1, 1, 1, 1, 1, 1, 
        1, 1, 1, 1, 1, 1, 1, 1, 1, 1, 
        1, 1, 1, 1, 1, 1, 1, 1, 1, 1, 
        1, 1, 1, 1, 1, 1, 1, 1, 1, 1, 
        1, 1, 1, 1, 1, 1, 1, 1, 1, 1, 
        1, 1, 1, 1, 1, 1, 1, 1, 1, 1, 
        1, 1, 1, 1, 1, 1, 1, 1, 1, 1, 
        1, 1, 1, 1, 1, 1, 1, 1, 1, 1, 
        1, 1, 1, 1, 1, 1, 1, 1, 1, 1, 
        1, 1, 1, 1, 1, 1, 1, 1, 1, 1, 
        1, 1, 1, 1, 1, 1, 1, 1, 1, 1
    ],
    "fDQF": [
        0, 0, 0, 0, 0, 0, 0, 0, 0, 0, 
        0, 0, 0, 0, 0, 0, 0, 0, 0, 0, 
        0, 0, 0, 0, 0, 0, 0, 0, 0, 0, 
        0, 0, 0, 0, 0, 0, 0, 0, 0, 0, 
        0, 0, 0, 0, 0, 0, 0, 0, 0, 0, 
        0, 0, 0, 0, 0, 0, 0, 0, 0, 0, 
        0, 0, 0, 0, 0, 0, 0, 0, 0, 0, 
        0, 0, 0, 0, 0, 0, 0, 0, 0, 0, 
        0, 0, 0, 0, 0, 0, 0, 0, 0, 0, 
        0, 0, 0, 0, 0, 0, 0, 0, 0, 0, 
        0, 0, 0, 0, 0, 0, 0, 0, 0, 0, 
        0, 0, 0, 0, 0, 0, 0, 0, 0, 0, 
        0, 0, 0, 0, 0, 0, 0, 0, 0, 0, 
        0, 0, 0, 0, 0, 0, 0, 0, 0, 0, 
        0, 0, 0, 0, 0, 0, 0, 0, 0, 0, 
        0, 0, 0, 0, 0, 0, 0, 0, 0, 0, 
        0, 0, 0, 0, 0, 0, 0, 0, 0, 0, 
        0, 0, 0, 0, 0, 0, 0, 0, 0, 0, 
        0, 0, 0, 0, 0, 0, 0, 0, 0, 0, 
        0, 0, 0, 0, 0, 0, 0, 0, 0, 0, 
        0, 0, 0, 0, 0, 0, 0, 0, 0, 0, 
        0, 0, 0, 0, 0, 0, 0, 0, 0, 0, 
        0, 0, 0, 0, 0, 0, 0, 0, 0, 0, 
        0, 0, 0, 0, 0, 0, 0, 0, 0, 0, 
        0, 0, 0, 0, 0, 0, 0, 0, 0, 0, 
        0, 0, 0, 0, 0, 0, 0, 0, 0, 0, 
        0, 0, 0, 0, 0, 0, 0, 0, 0, 0, 
        0, 0, 0, 0, 0, 0, 0, 0, 0, 0, 
        0, 0, 0, 0, 0, 0, 0, 0, 0, 0, 
        0, 0, 0, 0, 0, 0, 0, 0, 0, 0, 
        0, 0, 0, 0, 0, 0, 0, 0, 0, 0, 
        0, 0, 0, 0, 0, 0, 0, 0, 0, 0, 
        0, 0, 0, 0, 0, 0, 0, 0, 0, 0, 
        0, 0, 0, 0, 0, 0, 0, 0, 0, 0, 
        0, 0, 0, 0, 0, 0, 0, 0, 0, 0, 
        0, 0, 0, 0, 0, 0, 0, 0, 0, 0, 
        0, 0, 0, 0, 0, 0, 0, 0, 0, 0, 
        0, 0, 0, 0, 0, 0, 0, 0, 0, 0, 
        0, 0, 0, 0, 0, 0, 0, 0, 0, 0, 
        0, 0, 0, 0, 0, 0, 0, 0, 0, 0, 
        0, 0, 0, 0, 0, 0, 0, 0, 0, 0, 
        0, 0, 0, 0, 0, 0, 0, 0, 0, 0, 
        0, 0, 0, 0, 0, 0, 0, 0, 0, 0, 
        0, 0, 0, 0, 0, 0, 0, 0, 0, 0, 
        0, 0, 0, 0, 0, 0, 0, 0, 0, 0, 
        0, 0, 0, 0, 0, 0, 0, 0, 0, 0, 
        0, 0, 0, 0, 0, 0, 0, 0, 0, 0, 
        0, 0, 0, 0, 0, 0, 0, 0, 0, 0, 
        0, 0, 0, 0, 0, 0, 0, 0, 0, 0, 
        0, 0, 0, 0, 0, 0, 0, 0, 0, 0, 
        0, 0, 0, 0, 0, 0, 0, 0, 0, 0, 
        0, 0, 0, 0, 0, 0, 0, 0, 0, 0, 
        0, 0, 0, 0, 0, 0, 0, 0, 0, 0, 
        0, 0, 0, 0, 0, 0, 0, 0, 0, 0, 
        0, 0, 0, 0, 0, 0, 0, 0, 0, 0, 
        0, 0, 0, 0, 0, 0, 0, 0, 0, 0, 
        0, 0, 0, 0, 0, 0, 0, 0, 0, 0, 
        0, 0, 0, 0, 0, 0, 0, 0, 0, 0, 
        0, 0, 0, 0, 0, 0, 0, 0, 0, 0, 
        0, 0, 0, 0, 0, 0, 0, 0, 0, 0, 
        0, 0, 0, 0, 0, 0, 0, 0, 0, 0, 
        0, 0, 0, 0, 0, 0, 0, 0, 0, 0, 
        0, 0, 0, 0, 0, 0, 0, 0, 0, 0, 
        0, 0, 0, 0, 0, 0, 0, 0, 0, 0, 
        0, 0, 0, 0, 0, 0, 0, 0, 0, 0, 
        0, 0, 0, 0, 0, 0, 0, 0, 0, 0, 
        0, 0, 0, 0, 0, 0, 0, 0, 0, 0, 
        0, 0, 0, 0, 0, 0, 0, 0, 0, 0, 
        0, 0, 0, 0, 0, 0, 0, 0, 0, 0
    ],
    "lnGmf": [
        0, 0, 0, 0, 0, 0, 0, 0, 0, 0, 
        0, 0, 0, 0, 0, 0, 0, 0, 0, 0, 
        0, 0, 0, 0, 0, 0, 0, 0, 0, 0, 
        0, 0, 0, 0, 0, 0, 0, 0, 0, 0, 
        0, 0, 0, 0, 0, 0, 0, 0, 0, 0, 
        0, 0, 0, 0, 0, 0, 0, 0, 0, 0, 
        0, 0, 0, 0, 0, 0, 0, 0, 0, 0, 
        0, 0, 0, 0, 0, 0, 0, 0, 0, 0, 
        0, 0, 0, 0, 0, 0, 0, 0, 0, 0, 
        0, 0, 0, 0, 0, 0, 0, 0, 0, 0, 
        0, 0, 0, 0, 0, 0, 0, 0, 0, 0, 
        0, 0, 0, 0, 0, 0, 0, 0, 0, 0, 
        0, 0, 0, 0, 0, 0, 0, 0, 0, 0, 
        0, 0, 0, 0, 0, 0, 0, 0, 0, 0, 
        0, 0, 0, 0, 0, 0, 0, 0, 0, 0, 
        0, 0, 0, 0, 0, 0, 0, 0, 0, 0, 
        0, 0, 0, 0, 0, 0, 0, 0, 0, 0, 
        0, 0, 0, 0, 0, 0, 0, 0, 0, 0, 
        0, 0, 0, 0, 0, 0, 0, 0, 0, 0, 
        0, 0, 0, 0, 0, 0, 0, 0, 0, 0, 
        0, 0, 0, 0, 0, 0, 0, 0, 0, 0, 
        0, 0, 0, 0, 0, 0, 0, 0, 0, 0, 
        0, 0, 0, 0, 0, 0, 0, 0, 0, 0, 
        0, 0, 0, 0, 0, 0, 0, 0, 0, 0, 
        0, 0, 0, 0, 0, 0, 0, 0, 0, 0, 
        0, 0, 0, 0, 0, 0, 0, 0, 0, 0, 
        0, 0, 0, 0, 0, 0, 0, 0, 0, 0, 
        0, 0, 0, 0, 0, 0, 0, 0, 0, 0, 
        0, 0, 0, 0, 0, 0, 0, 0, 0, 0, 
        0, 0, 0, 0, 0, 0, 0, 0, 0, 0, 
        0, 0, 0, 0, 0, 0, 0, 0, 0, 0, 
        0, 0, 0, 0, 0, 0, 0, 0, 0, 0, 
        0, 0, 0, 0, 0, 0, 0, 0, 0, 0, 
        0, 0, 0, 0, 0, 0, 0, 0, 0, 0, 
        0, 0, 0, 0, 0, 0, 0, 0, 0, 0, 
        0, 0, 0, 0, 0, 0, 0, 0, 0, 0, 
        0, 0, 0, 0, 0, 0, 0, 0, 0, 0, 
        0, 0, 0, 0, 0, 0, 0, 0, 0, 0, 
        0, 0, 0, 0, 0, 0, 0, 0, 0, 0, 
        0, 0, 0, 0, 0, 0, 0, 0, 0, 0, 
        0, 0, 0, 0, 0, 0, 0, 0, 0, 0, 
        0, 0, 0, 0, 0, 0, 0, 0, 0, 0, 
        0, 0, 0, 0, 0, 0, 0, 0, 0, 0, 
        0, 0, 0, 0, 0, 0, 0, 0, 0, 0, 
        0, 0, 0, 0, 0, 0, 0, 0, 0, 0, 
        0, 0, 0, 0, 0, 0, 0, 0, 0, 0, 
        0, 0, 0, 0, 0, 0, 0, 0, 0, 0, 
        0, 0, 0, 0, 0, 0, 0, 0, 0, 0, 
        0, 0, 0, 0, 0, 0, 0, 0, 0, 0, 
        0, 0, 0, 0, 0, 0, 0, 0, 0, 0, 
        0, 0, 0, 0, 0, 0, 0, 0, 0, 0, 
        0, 0, 0, 0, 0, 0, 0, 0, 0, 0, 
        0, 0, 0, 0, 0, 0, 0, 0, 0, 0, 
        0, 0, 0, 0, 0, 0, 0, 0, 0, 0, 
        0, 0, 0, 0, 0, 0, 0, 0, 0, 0, 
        0, 0, 0, 0, 0, 0, 0, 0, 0, 0, 
        0, 0, 0, 0, 0, 0, 0, 0, 0, 0, 
        0, 0, 0, 0, 0, 0, 0, 0, 0, 0, 
        0, 0, 0, 0, 0, 0, 0, 0, 0, 0, 
        0, 0, 0, 0, 0, 0, 0, 0, 0, 0, 
        0, 0, 0, 0, 0, 0, 0, 0, 0, 0, 
        0, 0, 0, 0, 0, 0, 0, 0, 0, 0, 
        0, 0, 0, 0, 0, 0, 0, 0, 0, 0, 
        0, 0, 0, 0, 0, 0, 0, 0, 0, 0, 
        0, 0, 0, 0, 0, 0, 0, 0, 0, 0, 
        0, 0, 0, 0, 0, 0, 0, 0, 0, 0, 
        0, 0, 0, 0, 0, 0, 0, 0, 0, 0, 
        0, 0, 0, 0, 0, 0, 0, 0, 0, 0, 
        0, 0, 0, 0, 0, 0, 0, 0, 0, 0
    ],
    "RLC": [
        "B", "B", "B", "B", "B", "B", "B", "B", "B", "B", 
        "B", "B", "B", "B", "B", "B", "B", "B", "B", "B", 
        "B", "B", "B", "B", "B", "B", "B", "B", "B", "B", 
        "B", "B", "B", "B", "B", "B", "B", "B", "B", "B", 
        "B", "B", "B", "B", "B", "B", "B", "B", "B", "B", 
        "B", "B", "B", "B", "B", "B", "B", "B", "B", "B", 
        "B", "B", "B", "B", "B", "B", "B", "B", "B", "B", 
        "B", "B", "B", "B", "B", "B", "B", "B", "B", "B", 
        "B", "B", "B", "B", "B", "B", "B", "B", "B", "B", 
        "B", "B", "B", "B", "B", "B", "B", "B", "B", "B", 
        "B", "B", "B", "B", "B", "B", "B", "B", "B", "B", 
        "B", "B", "B", "B", "B", "B", "B", "B", "B", "B", 
        "B", "B", "B", "B", "B", "B", "B", "B", "B", "B", 
        "B", "B", "B", "B", "B", "B", "B", "B", "B", "B", 
        "B", "B", "B", "B", "B", "B", "B", "B", "B", "B", 
        "B", "B", "B", "B", "B", "B", "B", "B", "B", "B", 
        "B", "B", "B", "B", "B", "B", "B", "B", "B", "B", 
        "B", "B", "B", "B", "B", "B", "B", "B", "B", "B", 
        "B", "B", "B", "B", "B", "B", "B", "B", "B", "B", 
        "B", "B", "B", "B", "B", "B", "B", "B", "B", "B", 
        "B", "B", "B", "B", "B", "B", "B", "B", "B", "B", 
        "B", "B", "B", "B", "B", "B", "B", "B", "B", "B", 
        "B", "B", "B", "B", "B", "B", "B", "B", "B", "B", 
        "B", "B", "B", "B", "B", "B", "B", "B", "B", "B", 
        "B", "B", "B", "B", "B", "B", "B", "B", "B", "B", 
        "B", "B", "B", "B", "B", "B", "B", "B", "B", "B", 
        "B", "B", "B", "B", "B", "B", "B", "B", "B", "B", 
        "B", "B", "B", "B", "B", "B", "B", "B", "B", "B", 
        "B", "B", "B", "B", "B", "B", "B", "B", "B", "B", 
        "B", "B", "B", "B", "B", "B", "B", "B", "B", "B", 
        "B", "B", "B", "B", "B", "B", "B", "B", "B", "B", 
        "B", "B", "B", "B", "B", "B", "B", "B", "B", "B", 
        "B", "B", "B", "B", "B", "B", "B", "B", "B", "B", 
        "B", "B", "B", "B", "B", "B", "B", "B", "B", "B", 
        "B", "B", "B", "B", "B", "B", "B", "B", "B", "B", 
        "B", "B", "B", "B", "B", "B", "B", "B", "B", "B", 
        "B", "B", "B", "B", "B", "B", "B", "B", "B", "B", 
        "B", "B", "B", "B", "B", "B", "B", "B", "B", "B", 
        "B", "B", "B", "B", "B", "B", "B", "B", "B", "B", 
        "B", "B", "B", "B", "B", "B", "B", "B", "B", "B", 
        "B", "B", "B", "B", "B", "B", "B", "B", "B", "B", 
        "B", "B", "B", "B", "B", "B", "B", "B", "B", "B", 
        "B", "B", "B", "B", "B", "B", "B", "B", "B", "B", 
        "B", "B", "B", "B", "B", "B", "B", "B", "B", "B", 
        "B", "B", "B", "B", "B", "B", "B", "B", "B", "B", 
        "B", "B", "B", "B", "B", "B", "B", "B", "B", "B", 
        "B", "B", "B", "B", "B", "B", "B", "B", "B", "B", 
        "B", "B", "B", "B", "B", "B", "B", "B", "B", "B", 
        "B", "B", "B", "B", "B", "B", "B", "B", "B", "B", 
        "B", "B", "B", "B", "B", "B", "B", "B", "B", "B", 
        "B", "B", "B", "B", "B", "B", "B", "B", "B", "B", 
        "B", "B", "B", "B", "B", "B", "B", "B", "B", "B", 
        "B", "B", "B", "B", "B", "B", "B", "B", "B", "B", 
        "B", "B", "B", "B", "B", "B", "B", "B", "B", "B", 
        "B", "B", "B", "B", "B", "B", "B", "B", "B", "B", 
        "B", "B", "B", "B", "B", "B", "B", "B", "B", "B", 
        "B", "B", "B", "B", "B", "B", "B", "B", "B", "B", 
        "B", "B", "B", "B", "B", "B", "B", "B", "B", "B", 
        "B", "B", "B", "B", "B", "B", "B", "B", "B", "B", 
        "B", "B", "B", "B", "B", "B", "B", "B", "B", "B", 
        "B", "B", "B", "B", "B", "B", "B", "B", "B", "B", 
        "B", "B", "B", "B", "B", "B", "B", "B", "B", "B", 
        "B", "B", "B", "B", "B", "B", "B", "B", "B", "B", 
        "B", "B", "B", "B", "B", "B", "B", "B", "B", "B", 
        "B", "B", "B", "B", "B", "B", "B", "B", "B", "B", 
        "B", "B", "B", "B", "B", "B", "B", "B", "B", "B", 
        "B", "B", "B", "B", "B", "B", "B", "B", "B", "B", 
        "B", "B", "B", "B", "B", "B", "B", "B", "B", "B", 
        "B", "B", "B", "B", "B", "B", "B", "B", "B", "B"
    ],
    "RSC": [
        "M", "M", "M", "M", "M", "M", "M", "M", "M", "M", 
        "M", "M", "M", "M", "M", "M", "M", "M", "M", "M", 
        "M", "M", "M", "M", "M", "M", "M", "M", "M", "M", 
        "M", "M", "M", "M", "M", "M", "M", "M", "M", "M", 
        "M", "M", "M", "M", "M", "M", "M", "M", "M", "M", 
        "M", "M", "M", "M", "M", "M", "M", "M", "M", "M", 
        "M", "M", "M", "M", "M", "M", "M", "M", "M", "M", 
        "M", "M", "M", "M", "M", "M", "M", "M", "M", "M", 
        "M", "M", "M", "M", "M", "M", "M", "M", "M", "M", 
        "M", "M", "M", "M", "M", "M", "M", "M", "M", "M", 
        "M", "M", "M", "M", "M", "M", "M", "M", "M", "M", 
        "M", "M", "M", "M", "M", "M", "M", "M", "M", "M", 
        "M", "M", "M", "M", "M", "M", "M", "M", "M", "M", 
        "M", "M", "M", "M", "M", "M", "M", "M", "M", "M", 
        "M", "M", "M", "M", "M", "M", "M", "M", "M", "M", 
        "M", "M", "M", "M", "M", "M", "M", "M", "M", "M", 
        "M", "M", "M", "M", "M", "M", "M", "M", "M", "M", 
        "M", "M", "M", "M", "M", "M", "M", "M", "M", "M", 
        "M", "M", "M", "M", "M", "M", "M", "M", "M", "M", 
        "M", "M", "M", "M", "M", "M", "M", "M", "M", "M", 
        "M", "M", "M", "M", "M", "M", "M", "M", "M", "M", 
        "M", "M", "M", "M", "M", "M", "M", "M", "M", "M", 
        "M", "M", "M", "M", "M", "M", "M", "M", "M", "M", 
        "M", "M", "M", "M", "M", "M", "M", "M", "M", "M", 
        "M", "M", "M", "M", "M", "M", "M", "M", "M", "M", 
        "M", "M", "M", "M", "M", "M", "M", "M", "M", "M", 
        "M", "M", "M", "M", "M", "M", "M", "M", "M", "M", 
        "M", "M", "M", "M", "M", "M", "M", "M", "M", "M", 
        "M", "M", "M", "M", "M", "M", "M", "M", "M", "M", 
        "M", "M", "M", "M", "M", "M", "M", "M", "M", "M", 
        "M", "M", "M", "M", "M", "M", "M", "M", "M", "M", 
        "M", "M", "M", "M", "M", "M", "M", "M", "M", "M", 
        "M", "M", "M", "M", "M", "M", "M", "M", "M", "M", 
        "M", "M", "M", "M", "M", "M", "M", "M", "M", "M", 
        "M", "M", "M", "M", "M", "M", "M", "M", "M", "M", 
        "M", "M", "M", "M", "M", "M", "M", "M", "M", "M", 
        "M", "M", "M", "M", "M", "M", "M", "M", "M", "M", 
        "M", "M", "M", "M", "M", "M", "M", "M", "M", "M", 
        "M", "M", "M", "M", "M", "M", "M", "M", "M", "M", 
        "M", "M", "M", "M", "M", "M", "M", "M", "M", "M", 
        "M", "M", "M", "M", "M", "M", "M", "M", "M", "M", 
        "M", "M", "M", "M", "M", "M", "M", "M", "M", "M", 
        "M", "M", "M", "M", "M", "M", "M", "M", "M", "M", 
        "M", "M", "M", "M", "M", "M", "M", "M", "M", "M", 
        "M", "M", "M", "M", "M", "M", "M", "M", "M", "M", 
        "M", "M", "M", "M", "M", "M", "M", "M", "M", "M", 
        "M", "M", "M", "M", "M", "M", "M", "M", "M", "M", 
        "M", "M", "M", "M", "M", "M", "M", "M", "M", "M", 
        "M", "M", "M", "M", "M", "M", "M", "M", "M", "M", 
        "M", "M", "M", "M", "M", "M", "M", "M", "M", "M", 
        "M", "M", "M", "M", "M", "M", "M", "M", "M", "M", 
        "M", "M", "M", "M", "M", "M", "M", "M", "M", "M", 
        "M", "M", "M", "M", "M", "M", "M", "M", "M", "M", 
        "M", "M", "M", "M", "M", "M", "M", "M", "M", "M", 
        "M", "M", "M", "M", "M", "M", "M", "M", "M", "M", 
        "M", "M", "M", "M", "M", "M", "M", "M", "M", "M", 
        "M", "M", "M", "M", "M", "M", "M", "M", "M", "M", 
        "M", "M", "M", "M", "M", "M", "M", "M", "M", "M", 
        "M", "M", "M", "M", "M", "M", "M", "M", "M", "M", 
        "M", "M", "M", "M", "M", "M", "M", "M", "M", "M", 
        "M", "M", "M", "M", "M", "M", "M", "M", "M", "M", 
        "M", "M", "M", "M", "M", "M", "M", "M", "M", "M", 
        "M", "M", "M", "M", "M", "M", "M", "M", "M", "M", 
        "M", "M", "M", "M", "M", "M", "M", "M", "M", "M", 
        "M", "M", "M", "M", "M", "M", "M", "M", "M", "M", 
        "M", "M", "M", "M", "M", "M", "M", "M", "M", "M", 
        "M", "M", "M", "M", "M", "M", "M", "M", "M", "M", 
        "M", "M", "M", "M", "M", "M", "M", "M", "M", "M", 
        "M", "M", "M", "M", "M", "M", "M", "M", "M", "M"
    ],
    "DLL": [
        0, 0, 0, 0, 0, 0, 0, 0, 0, 0, 
        0, 0, 0, 0, 0, 0, 0, 0, 0, 0, 
        0, 0, 0, 0, 0, 0, 0, 0, 0, 0, 
        0, 0, 0, 0, 0, 0, 0, 0, 0, 0, 
        0, 0, 0, 0, 0, 0, 0, 0, 0, 0, 
        0, 0, 0, 0, 0, 0, 0, 0, 0, 0, 
        0, 0, 0, 0, 0, 0, 0, 0, 0, 0, 
        0, 0, 0, 0, 0, 0, 0, 0, 0, 0, 
        0, 0, 0, 0, 0, 0, 0, 0, 0, 0, 
        0, 0, 0, 0, 0, 0, 0, 0, 0, 0, 
        0, 0, 0, 0, 0, 0, 0, 0, 0, 0, 
        0, 0, 0, 0, 0, 0, 0, 0, 0, 0, 
        0, 0, 0, 0, 0, 0, 0, 0, 0, 0, 
        0, 0, 0, 0, 0, 0, 0, 0, 0, 0, 
        0, 0, 0, 0, 0, 0, 0, 0, 0, 0, 
        0, 0, 0, 0, 0, 0, 0, 0, 0, 0, 
        0, 0, 0, 0, 0, 0, 0, 0, 0, 0, 
        0, 0, 0, 0, 0, 0, 0, 0, 0, 0, 
        0, 0, 0, 0, 0, 0, 0, 0, 0, 0, 
        0, 0, 0, 0, 0, 0, 0, 0, 0, 0, 
        0, 0, 0, 0, 0, 0, 0, 0, 0, 0, 
        0, 0, 0, 0, 0, 0, 0, 0, 0, 0, 
        0, 0, 0, 0, 0, 0, 0, 0, 0, 0, 
        0, 0, 0, 0, 0, 0, 0, 0, 0, 0, 
        0, 0, 0, 0, 0, 0, 0, 0, 0, 0, 
        0, 0, 0, 0, 0, 0, 0, 0, 0, 0, 
        0, 0, 0, 0, 0, 0, 0, 0, 0, 0, 
        0, 0, 0, 0, 0, 0, 0, 0, 0, 0, 
        0, 0, 0, 0, 0, 0, 0, 0, 0, 0, 
        0, 0, 0, 0, 0, 0, 0, 0, 0, 0, 
        0, 0, 0, 0, 0, 0, 0, 0, 0, 0, 
        0, 0, 0, 0, 0, 0, 0, 0, 0, 0, 
        0, 0, 0, 0, 0, 0, 0, 0, 0, 0, 
        0, 0, 0, 0, 0, 0, 0, 0, 0, 0, 
        0, 0, 0, 0, 0, 0, 0, 0, 0, 0, 
        0, 0, 0, 0, 0, 0, 0, 0, 0, 0, 
        0, 0, 0, 0, 0, 0, 0, 0, 0, 0, 
        0, 0, 0, 0, 0, 0, 0, 0, 0, 0, 
        0, 0, 0, 0, 0, 0, 0, 0, 0, 0, 
        0, 0, 0, 0, 0, 0, 0, 0, 0, 0, 
        0, 0, 0, 0, 0, 0, 0, 0, 0, 0, 
        0, 0, 0, 0, 0, 0, 0, 0, 0, 0, 
        0, 0, 0, 0, 0, 0, 0, 0, 0, 0, 
        0, 0, 0, 0, 0, 0, 0, 0, 0, 0, 
        0, 0, 0, 0, 0, 0, 0, 0, 0, 0, 
        0, 0, 0, 0, 0, 0, 0, 0, 0, 0, 
        0, 0, 0, 0, 0, 0, 0, 0, 0, 0, 
        0, 0, 0, 0, 0, 0, 0, 0, 0, 0, 
        0, 0, 0, 0, 0, 0, 0, 0, 0, 0, 
        0, 0, 0, 0, 0, 0, 0, 0, 0, 0, 
        0, 0, 0, 0, 0, 0, 0, 0, 0, 0, 
        0, 0, 0, 0, 0, 0, 0, 0, 0, 0, 
        0, 0, 0, 0, 0, 0, 0, 0, 0, 0, 
        0, 0, 0, 0, 0, 0, 0, 0, 0, 0, 
        0, 0, 0, 0, 0, 0, 0, 0, 0, 0, 
        0, 0, 0, 0, 0, 0, 0, 0, 0, 0, 
        0, 0, 0, 0, 0, 0, 0, 0, 0, 0, 
        0, 0, 0, 0, 0, 0, 0, 0, 0, 0, 
        0, 0, 0, 0, 0, 0, 0, 0, 0, 0, 
        0, 0, 0, 0, 0, 0, 0, 0, 0, 0, 
        0, 0, 0, 0, 0, 0, 0, 0, 0, 0, 
        0, 0, 0, 0, 0, 0, 0, 0, 0, 0, 
        0, 0, 0, 0, 0, 0, 0, 0, 0, 0, 
        0, 0, 0, 0, 0, 0, 0, 0, 0, 0, 
        0, 0, 0, 0, 0, 0, 0, 0, 0, 0, 
        0, 0, 0, 0, 0, 0, 0, 0, 0, 0, 
        0, 0, 0, 0, 0, 0, 0, 0, 0, 0, 
        0, 0, 0, 0, 0, 0, 0, 0, 0, 0, 
        0, 0, 0, 0, 0, 0, 0, 0, 0, 0
    ],
    "DUL": [
        1000000, 1000000, 1000000, 1000000, 1000000, 1000000, 1000000, 1000000, 1000000, 1000000, 
        1000000, 1000000, 1000000, 1000000, 1000000, 1000000, 1000000, 1000000, 1000000, 1000000, 
        1000000, 1000000, 1000000, 1000000, 1000000, 1000000, 1000000, 1000000, 1000000, 1000000, 
        1000000, 1000000, 1000000, 1000000, 1000000, 1000000, 1000000, 1000000, 1000000, 1000000, 
        1000000, 1000000, 1000000, 1000000, 1000000, 1000000, 1000000, 1000000, 1000000, 1000000, 
        1000000, 1000000, 1000000, 1000000, 1000000, 1000000, 1000000, 1000000, 1000000, 1000000, 
        1000000, 1000000, 1000000, 1000000, 1000000, 1000000, 1000000, 1000000, 1000000, 1000000, 
        1000000, 1000000, 1000000, 1000000, 1000000, 1000000, 1000000, 1000000, 1000000, 1000000, 
        1000000, 1000000, 1000000, 1000000, 1000000, 1000000, 1000000, 1000000, 1000000, 1000000, 
        1000000, 1000000, 1000000, 1000000, 1000000, 1000000, 1000000, 1000000, 1000000, 1000000, 
        1000000, 1000000, 1000000, 1000000, 1000000, 1000000, 1000000, 1000000, 1000000, 1000000, 
        1000000, 1000000, 1000000, 1000000, 1000000, 1000000, 1000000, 1000000, 1000000, 1000000, 
        1000000, 1000000, 1000000, 1000000, 1000000, 1000000, 1000000, 1000000, 1000000, 1000000, 
        1000000, 1000000, 1000000, 1000000, 1000000, 1000000, 1000000, 1000000, 1000000, 1000000, 
        1000000, 1000000, 1000000, 1000000, 1000000, 1000000, 1000000, 1000000, 1000000, 1000000, 
        1000000, 1000000, 1000000, 1000000, 1000000, 1000000, 1000000, 1000000, 1000000, 1000000, 
        1000000, 1000000, 1000000, 1000000, 1000000, 1000000, 1000000, 1000000, 1000000, 1000000, 
        1000000, 1000000, 1000000, 1000000, 1000000, 1000000, 1000000, 1000000, 1000000, 1000000, 
        1000000, 1000000, 1000000, 1000000, 1000000, 1000000, 1000000, 1000000, 1000000, 1000000, 
        1000000, 1000000, 1000000, 1000000, 1000000, 1000000, 1000000, 1000000, 1000000, 1000000, 
        1000000, 1000000, 1000000, 1000000, 1000000, 1000000, 1000000, 1000000, 1000000, 1000000, 
        1000000, 1000000, 1000000, 1000000, 1000000, 1000000, 1000000, 1000000, 1000000, 1000000, 
        1000000, 1000000, 1000000, 1000000, 1000000, 1000000, 1000000, 1000000, 1000000, 1000000, 
        1000000, 1000000, 1000000, 1000000, 1000000, 1000000, 1000000, 1000000, 1000000, 1000000, 
        1000000, 1000000, 1000000, 1000000, 1000000, 1000000, 1000000, 1000000, 1000000, 1000000, 
        1000000, 1000000, 1000000, 1000000, 1000000, 1000000, 1000000, 1000000, 1000000, 1000000, 
        1000000, 1000000, 1000000, 1000000, 1000000, 1000000, 1000000, 1000000, 1000000, 1000000, 
        1000000, 1000000, 1000000, 1000000, 1000000, 1000000, 1000000, 1000000, 1000000, 1000000, 
        1000000, 1000000, 1000000, 1000000, 1000000, 1000000, 1000000, 1000000, 1000000, 1000000, 
        1000000, 1000000, 1000000, 1000000, 1000000, 1000000, 1000000, 1000000, 1000000, 1000000, 
        1000000, 1000000, 1000000, 1000000, 1000000, 1000000, 1000000, 1000000, 1000000, 1000000, 
        1000000, 1000000, 1000000, 1000000, 1000000, 1000000, 1000000, 1000000, 1000000, 1000000, 
        1000000, 1000000, 1000000, 1000000, 1000000, 1000000, 1000000, 1000000, 1000000, 1000000, 
        1000000, 1000000, 1000000, 1000000, 1000000, 1000000, 1000000, 1000000, 1000000, 1000000, 
        1000000, 1000000, 1000000, 1000000, 1000000, 1000000, 1000000, 1000000, 1000000, 1000000, 
        1000000, 1000000, 1000000, 1000000, 1000000, 1000000, 1000000, 1000000, 1000000, 1000000, 
        1000000, 1000000, 1000000, 1000000, 1000000, 1000000, 1000000, 1000000, 1000000, 1000000, 
        1000000, 1000000, 1000000, 1000000, 1000000, 1000000, 1000000, 1000000, 1000000, 1000000, 
        1000000, 1000000, 1000000, 1000000, 1000000, 1000000, 1000000, 1000000, 1000000, 1000000, 
        1000000, 1000000, 1000000, 1000000, 1000000, 1000000, 1000000, 1000000, 1000000, 1000000, 
        1000000, 1000000, 1000000, 1000000, 1000000, 1000000, 1000000, 1000000, 1000000, 1000000, 
        1000000, 1000000, 1000000, 1000000, 1000000, 1000000, 1000000, 1000000, 1000000, 1000000, 
        1000000, 1000000, 1000000, 1000000, 1000000, 1000000, 1000000, 1000000, 1000000, 1000000, 
        1000000, 1000000, 1000000, 1000000, 1000000, 1000000, 1000000, 1000000, 1000000, 1000000, 
        1000000, 1000000, 1000000, 1000000, 1000000, 1000000, 1000000, 1000000, 1000000, 1000000, 
        1000000, 1000000, 1000000, 1000000, 1000000, 1000000, 1000000, 1000000, 1000000, 1000000, 
        1000000, 1000000, 1000000, 1000000, 1000000, 1000000, 1000000, 1000000, 1000000, 1000000, 
        1000000, 1000000, 1000000, 1000000, 1000000, 1000000, 1000000, 1000000, 1000000, 1000000, 
        1000000, 1000000, 1000000, 1000000, 1000000, 1000000, 1000000, 1000000, 1000000, 1000000, 
        1000000, 1000000, 1000000, 1000000, 1000000, 1000000, 1000000, 1000000, 1000000, 1000000, 
        1000000, 1000000, 1000000, 1000000, 1000000, 1000000, 1000000, 1000000, 1000000, 1000000, 
        1000000, 1000000, 1000000, 1000000, 1000000, 1000000, 1000000, 1000000, 1000000, 1000000, 
        1000000, 1000000, 1000000, 1000000, 1000000, 1000000, 1000000, 1000000, 1000000, 1000000, 
        1000000, 1000000, 1000000, 1000000, 1000000, 1000000, 1000000, 1000000, 1000000, 1000000, 
        1000000, 1000000, 1000000, 1000000, 1000000, 1000000, 1000000, 1000000, 1000000, 1000000, 
        1000000, 1000000, 1000000, 1000000, 1000000, 1000000, 1000000, 1000000, 1000000, 1000000, 
        1000000, 1000000, 1000000, 1000000, 1000000, 1000000, 1000000, 1000000, 1000000, 1000000, 
        1000000, 1000000, 1000000, 1000000, 1000000, 1000000, 1000000, 1000000, 1000000, 1000000, 
        1000000, 1000000, 1000000, 1000000, 1000000, 1000000, 1000000, 1000000, 1000000, 1000000, 
        1000000, 1000000, 1000000, 1000000, 1000000, 1000000, 1000000, 1000000, 1000000, 1000000, 
        1000000, 1000000, 1000000, 1000000, 1000000, 1000000, 1000000, 1000000, 1000000, 1000000, 
        1000000, 1000000, 1000000, 1000000, 1000000, 1000000, 1000000, 1000000, 1000000, 1000000, 
        1000000, 1000000, 1000000, 1000000, 1000000, 1000000, 1000000, 1000000, 1000000, 1000000, 
        1000000, 1000000, 1000000, 1000000, 1000000, 1000000, 1000000, 1000000, 1000000, 1000000, 
        1000000, 1000000, 1000000, 1000000, 1000000, 1000000, 1000000, 1000000, 1000000, 1000000, 
        1000000, 1000000, 1000000, 1000000, 1000000, 1000000, 1000000, 1000000, 1000000, 1000000, 
        1000000, 1000000, 1000000, 1000000, 1000000, 1000000, 1000000, 1000000, 1000000, 1000000, 
        1000000, 1000000, 1000000, 1000000, 1000000, 1000000, 1000000, 1000000, 1000000, 1000000, 
        1000000, 1000000, 1000000, 1000000, 1000000, 1000000, 1000000, 1000000, 1000000, 1000000
    ],
    "Aalp": [
        0, 0, 0, 0, 0, 0, 0, 0, 0, 0, 
        0, 0, 0, 0, 0, 0, 0, 0, 0, 0, 
        0, 0, 0, 0, 0, 0, 0, 0, 0, 0, 
        0, 0, 0, 0, 0, 0, 0, 0, 0, 0, 
        0, 0, 0, 0, 0, 0, 0, 0, 0, 0, 
        0, 0, 0, 0, 0, 0, 0, 0, 0, 0, 
        0, 0, 0, 0, 0, 0, 0, 0, 0, 0, 
        0, 0, 0, 0, 0, 0, 0, 0, 0, 0, 
        0, 0, 0, 0, 0, 0, 0, 0, 0, 0, 
        0, 0, 0, 0, 0, 0, 0, 0, 0, 0, 
        0, 0, 0, 0, 0, 0, 0, 0, 0, 0, 
        0, 0, 0, 0, 0, 0, 0, 0, 0, 0, 
        0, 0, 0, 0, 0, 0
    ],
    "Sigw": [
        0, 0, 0, 0, 0, 0, 0, 0, 0, 0, 
        0, 0, 0, 0, 0, 0, 0, 0, 0, 0, 
        0, 0, 0, 0, 0, 0, 0, 0, 0, 0, 
        0, 0, 0, 0, 0, 0, 0, 0, 0, 0, 
        0, 0, 0, 0, 0, 0, 0, 0, 0, 0, 
        0, 0, 0, 0, 0, 0, 0, 0, 0, 0, 
        0, 0, 0, 0, 0, 0, 0, 0, 0, 0, 
        0, 0, 0, 0, 0, 0, 0, 0, 0, 0, 
        0, 0, 0, 0, 0, 0, 0, 0, 0, 0, 
        0, 0, 0, 0, 0, 0, 0, 0, 0, 0, 
        0, 0, 0, 0, 0, 0, 0, 0, 0, 0, 
        0, 0, 0, 0, 0, 0, 0, 0, 0, 0, 
        0, 0, 0, 0, 0, 0
    ],
    "Sigg": [
        0, 0, 0, 0, 0, 0, 0, 0, 0, 0, 
        0, 0, 0, 0, 0, 0, 0, 0, 0, 0, 
        0, 0, 0, 0, 0, 0, 0, 0, 0, 0, 
        0, 0, 0, 0, 0, 0, 0, 0, 0, 0, 
        0, 0, 0, 0, 0, 0, 0, 0, 0, 0, 
        0, 0, 0, 0, 0, 0, 0, 0, 0, 0, 
        0, 0, 0, 0, 0, 0, 0, 0, 0, 0, 
        0, 0, 0, 0, 0, 0, 0, 0, 0, 0, 
        0, 0, 0, 0, 0, 0, 0, 0, 0, 0, 
        0, 0, 0, 0, 0, 0, 0, 0, 0, 0, 
        0, 0, 0, 0, 0, 0, 0, 0, 0, 0, 
        0, 0, 0, 0, 0, 0, 0, 0, 0, 0, 
        0, 0, 0, 0, 0, 0
    ],
    "YOF": [
        0, 0, 0, 0, 0, 0, 0, 0, 0, 0, 
        0, 0, 0, 0, 0, 0, 0, 0, 0, 0, 
        0, 0, 0, 0, 0, 0, 0, 0, 0, 0, 
        0, 0, 0, 0, 0, 0, 0, 0, 0, 0, 
        0, 0, 0, 0, 0, 0, 0, 0, 0, 0, 
        0, 0, 0, 0, 0, 0, 0, 0, 0, 0, 
        0, 0, 0, 0, 0, 0, 0, 0, 0, 0, 
        0, 0, 0, 0, 0, 0, 0, 0, 0, 0, 
        0, 0, 0, 0, 0, 0, 0, 0, 0, 0, 
        0, 0, 0, 0, 0, 0, 0, 0, 0, 0, 
        0, 0, 0, 0, 0, 0, 0, 0, 0, 0, 
        0, 0, 0, 0, 0, 0, 0, 0, 0, 0, 
        0, 0, 0, 0, 0, 0
    ],
    "dcMod": [
        "HKF", "HKF", "HKF", "HKF", "HKF", "HKF", "HKF", "K3C", "K3C", "HKF", 
        "HKF", "HKF", "HKF", "K3CN", "K3C", "K3C", "K3C", "HKF", "HKF", "K3C", 
        "K3C", "K3C", "HKF", "K3C", "K3C", "K3C", "K3C", "HKF", "K3C", "K3C", 
        "K3C", "K3C", "K3C", "K3C", "K3C", "K3C", "K3C", "K3C", "CSC", "K3C", 
        "K3C", "K3CN", "HKF", "HKF", "HKF", "HKF", "HKF", "HKF", "HKF", "HKF", 
        "HKF", "HKF", "HKF", "HKF", "HKF", "HKF", "HKF", "HKF", "HKF", "HKF", 
        "HKF", "HKF", "K3CN", "K3C", "K3C", "K3C", "K3C", "K3C", "K3C", "K3C", 
        "K3C", "CSC", "K3C", "K3C", "K3C", "K3C", "K3C", "K3C", "K3C", "K3C", 
        "K3C", "K3C", "K3C", "K3CN", "HKF", "HKF", "HKF", "HKF", "HKF", "HKF", 
        "HKF", "HKF", "HKF", "HKF", "HKF", "HKF", "HKF", "HKF", "HKF", "K3CN", 
        "HKF", "HKF", "HKF", "HKF", "HKF", "HKF", "HKF", "HKF", "HKF", "HKF", 
        "HKF", "HKF", "K3C", "K3C", "HKF", "HKF", "HKF", "HKF", "HKF", "HKF", 
        "HKF", "HKF", "HKF", "HKF", "K3C", "HKF", "HKF", "HKF", "HKF", "HKF", 
        "HKF", "HKF", "HKF", "HKF", "HKF", "HKF", "HKF", "HKF", "K3C", "HKF", 
        "HKF", "HKF", "HKF", "HKF", "HKF", "HKF", "HKF", "HKF", "HKF", "HKF", 
        "HKF", "HKF", "HKF", "HKF", "HKF", "K3C", "HKF", "HKF", "K3C", "K3C", 
        "K3C", "K3C", "K3C", "K3C", "K3C", "K3C", "K3C", "K3C", "K3C", "K3C", 
        "K3C", "HKFN", "K3C", "K3C", "K3C", "K3C", "K3C", "K3C", "K3C", "K3CN", 
        "K3C", "K3C", "K3C", "K3C", "K3C", "K3CN", "K3C", "K3C", "K3C", "K3C", 
        "K3C", "K3C", "K3C", "K3C", "K3C", "K3C", "K3C", "CSCN", "K3C", "K3C", 
        "K3C", "K3C", "K3C", "K3C", "K3CN", "K3C", "K3C", "K3C", "K3C", "K3C", 
        "K3C", "K3C", "K3C", "K3C", "K3C", "K3C", "CSCN", "K3C", "K3C", "K3C", 
        "K3C", "K3C", "K3C", "K3C", "K3C", "K3C", "K3C", "K3C", "K3C", "K3CN", 
        "K3CN", "K3C", "CSCN", "K3C", "K3C", "K3C", "K3C", "K3C", "K3C", "K3C", 
        "K3C", "K3C", "K3C", "K3C", "K3C", "K3C", "K3C", "K3C", "K3C", "K3C", 
        "K3C", "K3C", "CSCN", "K3C", "K3C", "K3C", "K3C", "K3C", "K3C", "K3C", 
        "K3C", "K3C", "K3C", "HKF", "HKF", "K3C", "HKF", "K3C", "HKF", "HKF", 
        "K3C", "HKF", "K3C", "K3C", "K3C", "K3C", "K3C", "K3C", "K3C", "CSCN", 
        "K3C", "K3C", "K3C", "K3C", "K3C", "K3CN", "K3C", "K3C", "K3C", "K3C", 
        "K3C", "K3C", "K3C", "K3C", "K3C", "K3C", "K3C", "CSCN", "K3C", "K3C", 
        "K3C", "K3C", "K3C", "K3C", "K3C", "K3C", "CSCN", "K3C", "K3C", "K3C", 
        "K3C", "K3C", "K3C", "K3C", "K3C", "CSCN", "K3C", "K3C", "K3C", "K3C", 
        "K3C", "K3C", "HKF", "K3C", "HKF", "HKF", "HKF", "K3C", "K3CN", "K3CN", 
        "HKFN", "K3C", "HKFN", "K3C", "K3C", "K3C", "K3C", "K3C", "K3C", "CSCN", 
        "K3C", "K3C", "CSCN", "CSCN", "CSCN", "CSCN", "HKF", "K3C", "HKF", "K3C", 
        "K3C", "HKF", "HKF", "K3C", "HKF", "HKF", "HKF", "HKF", "HKF", "HKF", 
        "HKF", "CSCN", "K3C", "K3C", "HKF", "HKF", "HKF", "HKF", "HKF", "K3C", 
        "K3C", "K3C", "CSCN", "K3C", "K3C", "HKF", "K3C", "K3C", "K3C", "K3C", 
        "K3C", "K3C", "K3C", "K3C", "K3C", "K3C", "K3C", "K3C", "K3C", "K3C", 
        "K3C", "K3C", "K3C", "HKF", "K3C", "K3C", "K3C", "K3C", "K3C", "K3C", 
        "K3C", "K3C", "K3C", "K3C", "K3C", "K3C", "K3C", "K3C", "K3C", "K3C", 
        "K3C", "K3C", "K3C", "K3C", "K3C", "K3C", "HKF", "HKF", "K3C", "K3C", 
        "K3C", "K3C", "HKF", "HKF", "HKF", "K3C", "HKF", "K3C", "K3C", "K3C", 
        "K3C", "K3C", "K3C", "K3C", "HKF", "K3C", "K3C", "HKF", "K3C", "K3CN", 
        "K3C", "K3CN", "K3C", "K3CN", "K3C", "K3C", "K3C", "K3C", "K3C", "K3C", 
        "K3C", "K3C", "K3C", "K3C", "K3C", "K3C", "K3C", "K3C", "K3CN", "K3CN", 
        "K3C", "HKF", "K3C", "K3C", "K3C", "K3C", "K3C", "K3C", "HKF", "K3C", 
        "HKF", "HKF", "K3C", "K3C", "K3C", "K3C", "HKF", "HKF", "K3C", "K3C", 
        "K3C", "K3C", "K3C", "K3C", "K3C", "K3C", "K3CN", "K3C", "K3CN", "K3C", 
        "K3C", "K3C", "K3C", "K3C", "K3C", "K3C", "K3C", "K3C", "K3C", "K3C", 
        "K3C", "HKF", "K3C", "K3C", "K3C", "K3C", "K3C", "K3C", "K3C", "K3C", 
        "K3C", "K3C", "K3C", "K3C", "K3C", "K3C", "K3C", "K3C", "HKF", "HKF", 
        "HKF", "HKF", "HKF", "K3C", "CSC", "HKF", "HKF", "HKF", "HKF", "HKF", 
        "HKF", "K3C", "CSCN", "HKF", "CSCN", "HKFN", "HKF", "HKF", "HKF", "HKF", 
        "HKF", "HKF", "HKF", "K3CN", "HKF", "K3CN", "HKF", "HKF", "HKF", "HKF", 
        "HKF", "HKF", "HKF", "HKF", "K3C", "HKF", "HKF", "HKF", "HWF", "CSN", 
        "CSN", "CSN", "CSN", "CSN", "CSN", "K3CN", "CSC", "CSC", "K3C", "K3C", 
        "K3C", "K3C", "K3C", "K3C", "K3C", "K3C", "CSC", "K3C", "CSC", "CSC", 
        "CSC", "CSC", "CSC", "CSC", "CSC", "CSC", "CSC", "CSC", "K3CN", "K3C", 
        "K3C", "K3C", "K3C", "K3C", "CSC", "K3C", "CSC", "CSC", "CSC", "K3C", 
        "K3C", "CSC", "CSC", "CSC", "CSC", "CSC", "CSC", "CSC", "K3C", "CSC", 
        "CSC", "CSC", "K3C", "CSC", "CSC", "CSC", "CSC", "K3C", "K3CN", "K3CN", 
        "K3CN", "K3CN", "K3CN", "K3CN", "K3C", "K3C", "K3C", "K3C", "K3C", "K3C", 
        "K3C", "K3CN", "K3C", "K3C", "K3C", "CSC", "CSC", "K3C", "K3CN", "K3CN", 
        "K3C", "K3C", "K3C", "K3C", "K3C", "K3C", "K3C", "CSC", "CSC", "K3CN", 
        "K3C", "K3CN", "K3C", "K3C", "K3CN", "K3CN", "CSC", "CSC", "CSC", "K3C", 
        "CSC", "K3C", "CSC", "K3C", "CSC", "CSC", "K3C", "K3C", "K3C", "K3C", 
        "K3C", "K3CN", "K3C", "K3CN", "K3C", "K3CN", "K3C", "K3C", "K3CN", "K3C", 
        "K3CN", "K3C", "K3C", "K3C", "K3C", "K3C", "K3C", "K3C", "K3C", "K3C"
    ]
  }
}
]